[gd_scene load_steps=4 format=2]

[ext_resource path="res://ModelResources/SonicGenerations/Models/Plant4.mesh" type="ArrayMesh" id=1]

[sub_resource type="CylinderShape" id=1]
radius = 0.3
height = 2.8

[sub_resource type="SphereShape" id=2]
radius = 0.7

[node name="Flower1" type="MeshInstance"]
transform = Transform( 0.5, 0, 0, 0, 0.5, 0, 0, 0, 0.5, 0, 0, 0 )
use_in_baked_light = true
mesh = ExtResource( 1 )
material/0 = null
material/1 = null
material/2 = null

[node name="StaticBody" type="StaticBody" parent="."]

[node name="Trunk" type="CollisionShape" parent="StaticBody"]
transform = Transform( 1, 0, 0, 0, 1, 0, 0, 0, 1, 0, 1.4, 0 )
shape = SubResource( 1 )

[node name="Cup" type="CollisionShape" parent="StaticBody"]
transform = Transform( 1, 0, 0, 0, 1, 0, 0, 0, 1, 0, 3.2, 0.2 )
shape = SubResource( 2 )
