[gd_scene load_steps=5 format=2]

[ext_resource path="res://ModelResources/SonicGenerations/Models/stu_enm_beeton/BuzzBomber.glb" type="PackedScene" id=1]
[ext_resource path="res://Game/Enemies/BuzzBomber/Material/BuzzBomberWings.material" type="Material" id=2]
[ext_resource path="res://Game/Enemies/BuzzBomber/Material/BuzzBomber.material" type="Material" id=3]
[ext_resource path="res://Game/Enemies/BuzzBomber/BuzzBomberGlb.gd" type="Script" id=4]

[node name="BuzzBomber" instance=ExtResource( 1 )]
script = ExtResource( 4 )

[node name="stu_enm_beeton" parent="." index="0"]
material/0 = ExtResource( 3 )
material/1 = ExtResource( 3 )
material/2 = ExtResource( 3 )
material/3 = ExtResource( 2 )

[node name="AnimationTree" type="AnimationTree" parent="." index="1"]
