////////////////////////////////
////////////////////////////////
>> Rip by DatHax
>> No Credit needed.
>> Textures in \textures, if some textures are missing please go here: http://www.textures-resource.com/pc_computer/sonicgenerations/texture/4524/
////////////////////////////////
////////////////////////////////