# Blender MTL File: 'Motobug.blend'
# Material Count: 1

newmtl enm_motora_metal
Ns 0.000000
Ka 1.000000 1.000000 1.000000
Kd 0.220257 0.220257 0.220257
Ks 0.000000 0.000000 0.000000
Ke 0.000000 0.000000 0.000000
Ni 1.450000
d 0.000000
illum 1
