# Blender v2.90.1 OBJ File: ''
# www.blender.org
mtllib Pipe1x16.mtl
o Cylinder
v -0.862500 -0.500000 0.000000
v -0.862500 15.399998 0.000000
v -0.806250 -0.500000 -0.097428
v -0.806250 15.399998 -0.097428
v -0.693750 -0.500000 -0.097428
v -0.693750 15.399998 -0.097428
v -0.637500 -0.500000 0.000000
v -0.637500 15.399998 0.000000
v -0.693750 -0.500000 0.097428
v -0.693750 15.399998 0.097428
v -0.806250 -0.500000 0.097428
v -0.806250 15.399998 0.097428
v -0.431250 -0.500000 -0.746947
v -0.431250 15.399998 -0.746947
v -0.318750 -0.500000 -0.746947
v -0.318750 15.399998 -0.746947
v -0.262500 -0.500000 -0.649519
v -0.262500 15.399998 -0.649519
v -0.318750 -0.500000 -0.552091
v -0.318750 15.399998 -0.552091
v -0.431250 -0.500000 -0.552091
v -0.431250 15.399998 -0.552091
v -0.487500 -0.500000 -0.649519
v -0.487500 15.399998 -0.649519
v 0.431250 -0.500000 -0.746947
v 0.431250 15.399998 -0.746947
v 0.487500 -0.500000 -0.649519
v 0.487500 15.399998 -0.649519
v 0.431250 -0.500000 -0.552091
v 0.431250 15.399998 -0.552091
v 0.318750 -0.500000 -0.552091
v 0.318750 15.399998 -0.552091
v 0.262500 -0.500000 -0.649519
v 0.262500 15.399998 -0.649519
v 0.318750 -0.500000 -0.746947
v 0.318750 15.399998 -0.746947
v 0.862500 -0.500000 0.000000
v 0.862500 15.399998 0.000000
v 0.806250 -0.500000 0.097428
v 0.806250 15.399998 0.097428
v 0.693750 -0.500000 0.097428
v 0.693750 15.399998 0.097428
v 0.637500 -0.500000 -0.000000
v 0.637500 15.399998 -0.000000
v 0.693750 -0.500000 -0.097428
v 0.693750 15.399998 -0.097428
v 0.806250 -0.500000 -0.097428
v 0.806250 15.399998 -0.097428
v -0.431250 2.000000 0.746947
v -0.431250 15.399998 0.746947
v -0.487500 2.000000 0.649519
v -0.487500 15.399998 0.649519
v -0.431250 2.000000 0.552091
v -0.431250 15.399998 0.552091
v -0.318750 2.000000 0.552091
v -0.318750 15.399998 0.552091
v -0.262500 2.000000 0.649519
v -0.262500 15.399998 0.649519
v -0.318750 2.000000 0.746947
v -0.318750 15.399998 0.746947
v 0.431250 2.000000 0.746947
v 0.431250 15.399998 0.746947
v 0.318750 2.000000 0.746947
v 0.318750 15.399998 0.746947
v 0.262500 2.000000 0.649519
v 0.262500 15.399998 0.649519
v 0.318750 2.000000 0.552091
v 0.318750 15.399998 0.552091
v 0.431250 2.000000 0.552091
v 0.431250 15.399998 0.552091
v 0.487500 2.000000 0.649519
v 0.487500 15.399998 0.649519
v 1.150000 0.000000 0.000000
v 1.075000 0.129904 0.000000
v 0.925000 0.129904 0.000000
v 0.850000 0.000000 0.000000
v 0.925000 -0.129904 0.000000
v 1.075000 -0.129904 0.000000
v 0.995929 0.000000 -0.575000
v 0.930977 0.129904 -0.537500
v 0.801073 0.129904 -0.462500
v 0.736122 0.000000 -0.425000
v 0.801073 -0.129904 -0.462500
v 0.930977 -0.129904 -0.537500
v 0.575000 0.000000 -0.995929
v 0.537500 0.129904 -0.930977
v 0.462500 0.129904 -0.801074
v 0.425000 0.000000 -0.736122
v 0.462500 -0.129904 -0.801074
v 0.537500 -0.129904 -0.930977
v 0.000000 0.000000 -1.150000
v 0.000000 0.129904 -1.075000
v 0.000000 0.129904 -0.925000
v 0.000000 0.000000 -0.850000
v 0.000000 -0.129904 -0.925000
v 0.000000 -0.129904 -1.075000
v -0.575000 0.000000 -0.995929
v -0.537500 0.129904 -0.930977
v -0.462500 0.129904 -0.801074
v -0.425000 0.000000 -0.736122
v -0.462500 -0.129904 -0.801074
v -0.537500 -0.129904 -0.930977
v -0.995929 0.000000 -0.575000
v -0.930977 0.129904 -0.537500
v -0.801073 0.129904 -0.462500
v -0.736121 0.000000 -0.425000
v -0.801073 -0.129904 -0.462500
v -0.930977 -0.129904 -0.537500
v -1.150000 0.000000 -0.000000
v -1.075000 0.129904 -0.000000
v -0.925000 0.129904 -0.000000
v -0.850000 0.000000 -0.000000
v -0.925000 -0.129904 -0.000000
v -1.075000 -0.129904 -0.000000
v -0.995929 0.000000 0.575000
v -0.930977 0.129904 0.537500
v -0.801074 0.129904 0.462500
v -0.736122 0.000000 0.425000
v -0.801074 -0.129904 0.462500
v -0.930977 -0.129904 0.537500
v -0.575000 0.000000 0.995929
v -0.537500 0.129904 0.930977
v -0.462500 0.129904 0.801074
v -0.425000 0.000000 0.736122
v -0.462500 -0.129904 0.801074
v -0.537500 -0.129904 0.930977
v 0.000000 0.000000 1.150000
v 0.000000 0.129904 1.075000
v 0.000000 0.129904 0.925000
v 0.000000 0.000000 0.850000
v 0.000000 -0.129904 0.925000
v 0.000000 -0.129904 1.075000
v 0.575000 0.000000 0.995929
v 0.537500 0.129904 0.930977
v 0.462500 0.129904 0.801074
v 0.425000 0.000000 0.736122
v 0.462500 -0.129904 0.801074
v 0.537500 -0.129904 0.930977
v 0.995929 0.000000 0.575000
v 0.930977 0.129904 0.537500
v 0.801073 0.129904 0.462500
v 0.736122 0.000000 0.425000
v 0.801073 -0.129904 0.462500
v 0.930977 -0.129904 0.537500
v 1.150000 16.000000 0.000000
v 1.075000 16.129904 0.000000
v 0.925000 16.129904 0.000000
v 0.850000 16.000000 0.000000
v 0.925000 15.870096 0.000000
v 1.075000 15.870096 0.000000
v 0.995929 16.000000 -0.575000
v 0.930977 16.129904 -0.537500
v 0.801073 16.129904 -0.462500
v 0.736122 16.000000 -0.425000
v 0.801073 15.870096 -0.462500
v 0.930977 15.870096 -0.537500
v 0.575000 16.000000 -0.995929
v 0.537500 16.129904 -0.930977
v 0.462500 16.129904 -0.801074
v 0.425000 16.000000 -0.736122
v 0.462500 15.870096 -0.801074
v 0.537500 15.870096 -0.930977
v 0.000000 16.000000 -1.150000
v 0.000000 16.129904 -1.075000
v 0.000000 16.129904 -0.925000
v 0.000000 16.000000 -0.850000
v 0.000000 15.870096 -0.925000
v 0.000000 15.870096 -1.075000
v -0.575000 16.000000 -0.995929
v -0.537500 16.129904 -0.930977
v -0.462500 16.129904 -0.801074
v -0.425000 16.000000 -0.736122
v -0.462500 15.870096 -0.801074
v -0.537500 15.870096 -0.930977
v -0.995929 16.000000 -0.575000
v -0.930977 16.129904 -0.537500
v -0.801073 16.129904 -0.462500
v -0.736121 16.000000 -0.425000
v -0.801073 15.870096 -0.462500
v -0.930977 15.870096 -0.537500
v -1.150000 16.000000 -0.000000
v -1.075000 16.129904 -0.000000
v -0.925000 16.129904 -0.000000
v -0.850000 16.000000 -0.000000
v -0.925000 15.870096 -0.000000
v -1.075000 15.870096 -0.000000
v -0.995929 16.000000 0.575000
v -0.930977 16.129904 0.537500
v -0.801074 16.129904 0.462500
v -0.736122 16.000000 0.425000
v -0.801074 15.870096 0.462500
v -0.930977 15.870096 0.537500
v -0.575000 16.000000 0.995929
v -0.537500 16.129904 0.930977
v -0.462500 16.129904 0.801074
v -0.425000 16.000000 0.736122
v -0.462500 15.870096 0.801074
v -0.537500 15.870096 0.930977
v 0.000000 16.000000 1.150000
v 0.000000 16.129904 1.075000
v 0.000000 16.129904 0.925000
v 0.000000 16.000000 0.850000
v 0.000000 15.870096 0.925000
v 0.000000 15.870096 1.075000
v 0.575000 16.000000 0.995929
v 0.537500 16.129904 0.930977
v 0.462500 16.129904 0.801074
v 0.425000 16.000000 0.736122
v 0.462500 15.870096 0.801074
v 0.537500 15.870096 0.930977
v 0.995929 16.000000 0.575000
v 0.930977 16.129904 0.537500
v 0.801073 16.129904 0.462500
v 0.736122 16.000000 0.425000
v 0.801073 15.870096 0.462500
v 0.930977 15.870096 0.537500
v 1.150000 14.000000 0.000000
v 1.075000 14.129904 0.000000
v 0.925000 14.129904 0.000000
v 0.850000 14.000000 0.000000
v 0.925000 13.870096 0.000000
v 1.075000 13.870096 0.000000
v 0.995929 14.000000 -0.575000
v 0.930977 14.129904 -0.537500
v 0.801073 14.129904 -0.462500
v 0.736122 14.000000 -0.425000
v 0.801073 13.870096 -0.462500
v 0.930977 13.870096 -0.537500
v 0.575000 14.000000 -0.995929
v 0.537500 14.129904 -0.930977
v 0.462500 14.129904 -0.801074
v 0.425000 14.000000 -0.736122
v 0.462500 13.870096 -0.801074
v 0.537500 13.870096 -0.930977
v 0.000000 14.000000 -1.150000
v 0.000000 14.129904 -1.075000
v 0.000000 14.129904 -0.925000
v 0.000000 14.000000 -0.850000
v 0.000000 13.870096 -0.925000
v 0.000000 13.870096 -1.075000
v -0.575000 14.000000 -0.995929
v -0.537500 14.129904 -0.930977
v -0.462500 14.129904 -0.801074
v -0.425000 14.000000 -0.736122
v -0.462500 13.870096 -0.801074
v -0.537500 13.870096 -0.930977
v -0.995929 14.000000 -0.575000
v -0.930977 14.129904 -0.537500
v -0.801073 14.129904 -0.462500
v -0.736121 14.000000 -0.425000
v -0.801073 13.870096 -0.462500
v -0.930977 13.870096 -0.537500
v -1.150000 14.000000 -0.000000
v -1.075000 14.129904 -0.000000
v -0.925000 14.129904 -0.000000
v -0.850000 14.000000 -0.000000
v -0.925000 13.870096 -0.000000
v -1.075000 13.870096 -0.000000
v -0.995929 14.000000 0.575000
v -0.930977 14.129904 0.537500
v -0.801074 14.129904 0.462500
v -0.736122 14.000000 0.425000
v -0.801074 13.870096 0.462500
v -0.930977 13.870096 0.537500
v -0.575000 14.000000 0.995929
v -0.537500 14.129904 0.930977
v -0.462500 14.129904 0.801074
v -0.425000 14.000000 0.736122
v -0.462500 13.870096 0.801074
v -0.537500 13.870096 0.930977
v 0.000000 14.000000 1.150000
v 0.000000 14.129904 1.075000
v 0.000000 14.129904 0.925000
v 0.000000 14.000000 0.850000
v 0.000000 13.870096 0.925000
v 0.000000 13.870096 1.075000
v 0.575000 14.000000 0.995929
v 0.537500 14.129904 0.930977
v 0.462500 14.129904 0.801074
v 0.425000 14.000000 0.736122
v 0.462500 13.870096 0.801074
v 0.537500 13.870096 0.930977
v 0.995929 14.000000 0.575000
v 0.930977 14.129904 0.537500
v 0.801073 14.129904 0.462500
v 0.736122 14.000000 0.425000
v 0.801073 13.870096 0.462500
v 0.930977 13.870096 0.537500
v 1.150000 12.000000 0.000000
v 1.075000 12.129904 0.000000
v 0.925000 12.129904 0.000000
v 0.850000 12.000000 0.000000
v 0.925000 11.870096 0.000000
v 1.075000 11.870096 0.000000
v 0.995929 12.000000 -0.575000
v 0.930977 12.129904 -0.537500
v 0.801073 12.129904 -0.462500
v 0.736122 12.000000 -0.425000
v 0.801073 11.870096 -0.462500
v 0.930977 11.870096 -0.537500
v 0.575000 12.000000 -0.995929
v 0.537500 12.129904 -0.930977
v 0.462500 12.129904 -0.801074
v 0.425000 12.000000 -0.736122
v 0.462500 11.870096 -0.801074
v 0.537500 11.870096 -0.930977
v 0.000000 12.000000 -1.150000
v 0.000000 12.129904 -1.075000
v 0.000000 12.129904 -0.925000
v 0.000000 12.000000 -0.850000
v 0.000000 11.870096 -0.925000
v 0.000000 11.870096 -1.075000
v -0.575000 12.000000 -0.995929
v -0.537500 12.129904 -0.930977
v -0.462500 12.129904 -0.801074
v -0.425000 12.000000 -0.736122
v -0.462500 11.870096 -0.801074
v -0.537500 11.870096 -0.930977
v -0.995929 12.000000 -0.575000
v -0.930977 12.129904 -0.537500
v -0.801073 12.129904 -0.462500
v -0.736121 12.000000 -0.425000
v -0.801073 11.870096 -0.462500
v -0.930977 11.870096 -0.537500
v -1.150000 12.000000 -0.000000
v -1.075000 12.129904 -0.000000
v -0.925000 12.129904 -0.000000
v -0.850000 12.000000 -0.000000
v -0.925000 11.870096 -0.000000
v -1.075000 11.870096 -0.000000
v -0.995929 12.000000 0.575000
v -0.930977 12.129904 0.537500
v -0.801074 12.129904 0.462500
v -0.736122 12.000000 0.425000
v -0.801074 11.870096 0.462500
v -0.930977 11.870096 0.537500
v -0.575000 12.000000 0.995929
v -0.537500 12.129904 0.930977
v -0.462500 12.129904 0.801074
v -0.425000 12.000000 0.736122
v -0.462500 11.870096 0.801074
v -0.537500 11.870096 0.930977
v 0.000000 12.000000 1.150000
v 0.000000 12.129904 1.075000
v 0.000000 12.129904 0.925000
v 0.000000 12.000000 0.850000
v 0.000000 11.870096 0.925000
v 0.000000 11.870096 1.075000
v 0.575000 12.000000 0.995929
v 0.537500 12.129904 0.930977
v 0.462500 12.129904 0.801074
v 0.425000 12.000000 0.736122
v 0.462500 11.870096 0.801074
v 0.537500 11.870096 0.930977
v 0.995929 12.000000 0.575000
v 0.930977 12.129904 0.537500
v 0.801073 12.129904 0.462500
v 0.736122 12.000000 0.425000
v 0.801073 11.870096 0.462500
v 0.930977 11.870096 0.537500
v 1.150000 10.000000 0.000000
v 1.075000 10.129904 0.000000
v 0.925000 10.129904 0.000000
v 0.850000 10.000000 0.000000
v 0.925000 9.870096 0.000000
v 1.075000 9.870096 0.000000
v 0.995929 10.000000 -0.575000
v 0.930977 10.129904 -0.537500
v 0.801073 10.129904 -0.462500
v 0.736122 10.000000 -0.425000
v 0.801073 9.870096 -0.462500
v 0.930977 9.870096 -0.537500
v 0.575000 10.000000 -0.995929
v 0.537500 10.129904 -0.930977
v 0.462500 10.129904 -0.801074
v 0.425000 10.000000 -0.736122
v 0.462500 9.870096 -0.801074
v 0.537500 9.870096 -0.930977
v 0.000000 10.000000 -1.150000
v 0.000000 10.129904 -1.075000
v 0.000000 10.129904 -0.925000
v 0.000000 10.000000 -0.850000
v 0.000000 9.870096 -0.925000
v 0.000000 9.870096 -1.075000
v -0.575000 10.000000 -0.995929
v -0.537500 10.129904 -0.930977
v -0.462500 10.129904 -0.801074
v -0.425000 10.000000 -0.736122
v -0.462500 9.870096 -0.801074
v -0.537500 9.870096 -0.930977
v -0.995929 10.000000 -0.575000
v -0.930977 10.129904 -0.537500
v -0.801073 10.129904 -0.462500
v -0.736121 10.000000 -0.425000
v -0.801073 9.870096 -0.462500
v -0.930977 9.870096 -0.537500
v -1.150000 10.000000 -0.000000
v -1.075000 10.129904 -0.000000
v -0.925000 10.129904 -0.000000
v -0.850000 10.000000 -0.000000
v -0.925000 9.870096 -0.000000
v -1.075000 9.870096 -0.000000
v -0.995929 10.000000 0.575000
v -0.930977 10.129904 0.537500
v -0.801074 10.129904 0.462500
v -0.736122 10.000000 0.425000
v -0.801074 9.870096 0.462500
v -0.930977 9.870096 0.537500
v -0.575000 10.000000 0.995929
v -0.537500 10.129904 0.930977
v -0.462500 10.129904 0.801074
v -0.425000 10.000000 0.736122
v -0.462500 9.870096 0.801074
v -0.537500 9.870096 0.930977
v 0.000000 10.000000 1.150000
v 0.000000 10.129904 1.075000
v 0.000000 10.129904 0.925000
v 0.000000 10.000000 0.850000
v 0.000000 9.870096 0.925000
v 0.000000 9.870096 1.075000
v 0.575000 10.000000 0.995929
v 0.537500 10.129904 0.930977
v 0.462500 10.129904 0.801074
v 0.425000 10.000000 0.736122
v 0.462500 9.870096 0.801074
v 0.537500 9.870096 0.930977
v 0.995929 10.000000 0.575000
v 0.930977 10.129904 0.537500
v 0.801073 10.129904 0.462500
v 0.736122 10.000000 0.425000
v 0.801073 9.870096 0.462500
v 0.930977 9.870096 0.537500
v 1.150000 8.000000 0.000000
v 1.075000 8.129904 0.000000
v 0.925000 8.129904 0.000000
v 0.850000 8.000000 0.000000
v 0.925000 7.870096 0.000000
v 1.075000 7.870096 0.000000
v 0.995929 8.000000 -0.575000
v 0.930977 8.129904 -0.537500
v 0.801073 8.129904 -0.462500
v 0.736122 8.000000 -0.425000
v 0.801073 7.870096 -0.462500
v 0.930977 7.870096 -0.537500
v 0.575000 8.000000 -0.995929
v 0.537500 8.129904 -0.930977
v 0.462500 8.129904 -0.801074
v 0.425000 8.000000 -0.736122
v 0.462500 7.870096 -0.801074
v 0.537500 7.870096 -0.930977
v 0.000000 8.000000 -1.150000
v 0.000000 8.129904 -1.075000
v 0.000000 8.129904 -0.925000
v 0.000000 8.000000 -0.850000
v 0.000000 7.870096 -0.925000
v 0.000000 7.870096 -1.075000
v -0.575000 8.000000 -0.995929
v -0.537500 8.129904 -0.930977
v -0.462500 8.129904 -0.801074
v -0.425000 8.000000 -0.736122
v -0.462500 7.870096 -0.801074
v -0.537500 7.870096 -0.930977
v -0.995929 8.000000 -0.575000
v -0.930977 8.129904 -0.537500
v -0.801073 8.129904 -0.462500
v -0.736121 8.000000 -0.425000
v -0.801073 7.870096 -0.462500
v -0.930977 7.870096 -0.537500
v -1.150000 8.000000 -0.000000
v -1.075000 8.129904 -0.000000
v -0.925000 8.129904 -0.000000
v -0.850000 8.000000 -0.000000
v -0.925000 7.870096 -0.000000
v -1.075000 7.870096 -0.000000
v -0.995929 8.000000 0.575000
v -0.930977 8.129904 0.537500
v -0.801074 8.129904 0.462500
v -0.736122 8.000000 0.425000
v -0.801074 7.870096 0.462500
v -0.930977 7.870096 0.537500
v -0.575000 8.000000 0.995929
v -0.537500 8.129904 0.930977
v -0.462500 8.129904 0.801074
v -0.425000 8.000000 0.736122
v -0.462500 7.870096 0.801074
v -0.537500 7.870096 0.930977
v 0.000000 8.000000 1.150000
v 0.000000 8.129904 1.075000
v 0.000000 8.129904 0.925000
v 0.000000 8.000000 0.850000
v 0.000000 7.870096 0.925000
v 0.000000 7.870096 1.075000
v 0.575000 8.000000 0.995929
v 0.537500 8.129904 0.930977
v 0.462500 8.129904 0.801074
v 0.425000 8.000000 0.736122
v 0.462500 7.870096 0.801074
v 0.537500 7.870096 0.930977
v 0.995929 8.000000 0.575000
v 0.930977 8.129904 0.537500
v 0.801073 8.129904 0.462500
v 0.736122 8.000000 0.425000
v 0.801073 7.870096 0.462500
v 0.930977 7.870096 0.537500
v 1.150000 6.000000 0.000000
v 1.075000 6.129904 0.000000
v 0.925000 6.129904 0.000000
v 0.850000 6.000000 0.000000
v 0.925000 5.870096 0.000000
v 1.075000 5.870096 0.000000
v 0.995929 6.000000 -0.575000
v 0.930977 6.129904 -0.537500
v 0.801073 6.129904 -0.462500
v 0.736122 6.000000 -0.425000
v 0.801073 5.870096 -0.462500
v 0.930977 5.870096 -0.537500
v 0.575000 6.000000 -0.995929
v 0.537500 6.129904 -0.930977
v 0.462500 6.129904 -0.801074
v 0.425000 6.000000 -0.736122
v 0.462500 5.870096 -0.801074
v 0.537500 5.870096 -0.930977
v 0.000000 6.000000 -1.150000
v 0.000000 6.129904 -1.075000
v 0.000000 6.129904 -0.925000
v 0.000000 6.000000 -0.850000
v 0.000000 5.870096 -0.925000
v 0.000000 5.870096 -1.075000
v -0.575000 6.000000 -0.995929
v -0.537500 6.129904 -0.930977
v -0.462500 6.129904 -0.801074
v -0.425000 6.000000 -0.736122
v -0.462500 5.870096 -0.801074
v -0.537500 5.870096 -0.930977
v -0.995929 6.000000 -0.575000
v -0.930977 6.129904 -0.537500
v -0.801073 6.129904 -0.462500
v -0.736121 6.000000 -0.425000
v -0.801073 5.870096 -0.462500
v -0.930977 5.870096 -0.537500
v -1.150000 6.000000 -0.000000
v -1.075000 6.129904 -0.000000
v -0.925000 6.129904 -0.000000
v -0.850000 6.000000 -0.000000
v -0.925000 5.870096 -0.000000
v -1.075000 5.870096 -0.000000
v -0.995929 6.000000 0.575000
v -0.930977 6.129904 0.537500
v -0.801074 6.129904 0.462500
v -0.736122 6.000000 0.425000
v -0.801074 5.870096 0.462500
v -0.930977 5.870096 0.537500
v -0.575000 6.000000 0.995929
v -0.537500 6.129904 0.930977
v -0.462500 6.129904 0.801074
v -0.425000 6.000000 0.736122
v -0.462500 5.870096 0.801074
v -0.537500 5.870096 0.930977
v 0.000000 6.000000 1.150000
v 0.000000 6.129904 1.075000
v 0.000000 6.129904 0.925000
v 0.000000 6.000000 0.850000
v 0.000000 5.870096 0.925000
v 0.000000 5.870096 1.075000
v 0.575000 6.000000 0.995929
v 0.537500 6.129904 0.930977
v 0.462500 6.129904 0.801074
v 0.425000 6.000000 0.736122
v 0.462500 5.870096 0.801074
v 0.537500 5.870096 0.930977
v 0.995929 6.000000 0.575000
v 0.930977 6.129904 0.537500
v 0.801073 6.129904 0.462500
v 0.736122 6.000000 0.425000
v 0.801073 5.870096 0.462500
v 0.930977 5.870096 0.537500
v 1.150000 4.000000 0.000000
v 1.075000 4.129904 0.000000
v 0.925000 4.129904 0.000000
v 0.850000 4.000000 0.000000
v 0.925000 3.870096 0.000000
v 1.075000 3.870096 0.000000
v 0.995929 4.000000 -0.575000
v 0.930977 4.129904 -0.537500
v 0.801073 4.129904 -0.462500
v 0.736122 4.000000 -0.425000
v 0.801073 3.870096 -0.462500
v 0.930977 3.870096 -0.537500
v 0.575000 4.000000 -0.995929
v 0.537500 4.129904 -0.930977
v 0.462500 4.129904 -0.801074
v 0.425000 4.000000 -0.736122
v 0.462500 3.870096 -0.801074
v 0.537500 3.870096 -0.930977
v 0.000000 4.000000 -1.150000
v 0.000000 4.129904 -1.075000
v 0.000000 4.129904 -0.925000
v 0.000000 4.000000 -0.850000
v 0.000000 3.870096 -0.925000
v 0.000000 3.870096 -1.075000
v -0.575000 4.000000 -0.995929
v -0.537500 4.129904 -0.930977
v -0.462500 4.129904 -0.801074
v -0.425000 4.000000 -0.736122
v -0.462500 3.870096 -0.801074
v -0.537500 3.870096 -0.930977
v -0.995929 4.000000 -0.575000
v -0.930977 4.129904 -0.537500
v -0.801073 4.129904 -0.462500
v -0.736121 4.000000 -0.425000
v -0.801073 3.870096 -0.462500
v -0.930977 3.870096 -0.537500
v -1.150000 4.000000 -0.000000
v -1.075000 4.129904 -0.000000
v -0.925000 4.129904 -0.000000
v -0.850000 4.000000 -0.000000
v -0.925000 3.870096 -0.000000
v -1.075000 3.870096 -0.000000
v -0.995929 4.000000 0.575000
v -0.930977 4.129904 0.537500
v -0.801074 4.129904 0.462500
v -0.736122 4.000000 0.425000
v -0.801074 3.870096 0.462500
v -0.930977 3.870096 0.537500
v -0.575000 4.000000 0.995929
v -0.537500 4.129904 0.930977
v -0.462500 4.129904 0.801074
v -0.425000 4.000000 0.736122
v -0.462500 3.870096 0.801074
v -0.537500 3.870096 0.930977
v 0.000000 4.000000 1.150000
v 0.000000 4.129904 1.075000
v 0.000000 4.129904 0.925000
v 0.000000 4.000000 0.850000
v 0.000000 3.870096 0.925000
v 0.000000 3.870096 1.075000
v 0.575000 4.000000 0.995929
v 0.537500 4.129904 0.930977
v 0.462500 4.129904 0.801074
v 0.425000 4.000000 0.736122
v 0.462500 3.870096 0.801074
v 0.537500 3.870096 0.930977
v 0.995929 4.000000 0.575000
v 0.930977 4.129904 0.537500
v 0.801073 4.129904 0.462500
v 0.736122 4.000000 0.425000
v 0.801073 3.870096 0.462500
v 0.930977 3.870096 0.537500
v 1.150000 4.000000 0.000000
v 1.075000 4.129904 0.000000
v 0.925000 4.129904 0.000000
v 0.850000 4.000000 0.000000
v 0.925000 3.870096 0.000000
v 1.075000 3.870096 0.000000
v 0.995929 4.000000 -0.575000
v 0.930977 4.129904 -0.537500
v 0.801073 4.129904 -0.462500
v 0.736122 4.000000 -0.425000
v 0.801073 3.870096 -0.462500
v 0.930977 3.870096 -0.537500
v 0.575000 4.000000 -0.995929
v 0.537500 4.129904 -0.930977
v 0.462500 4.129904 -0.801074
v 0.425000 4.000000 -0.736122
v 0.462500 3.870096 -0.801074
v 0.537500 3.870096 -0.930977
v 0.000000 4.000000 -1.150000
v 0.000000 4.129904 -1.075000
v 0.000000 4.129904 -0.925000
v 0.000000 4.000000 -0.850000
v 0.000000 3.870096 -0.925000
v 0.000000 3.870096 -1.075000
v -0.575000 4.000000 -0.995929
v -0.537500 4.129904 -0.930977
v -0.462500 4.129904 -0.801074
v -0.425000 4.000000 -0.736122
v -0.462500 3.870096 -0.801074
v -0.537500 3.870096 -0.930977
v -0.995929 4.000000 -0.575000
v -0.930977 4.129904 -0.537500
v -0.801073 4.129904 -0.462500
v -0.736121 4.000000 -0.425000
v -0.801073 3.870096 -0.462500
v -0.930977 3.870096 -0.537500
v -1.150000 4.000000 -0.000000
v -1.075000 4.129904 -0.000000
v -0.925000 4.129904 -0.000000
v -0.850000 4.000000 -0.000000
v -0.925000 3.870096 -0.000000
v -1.075000 3.870096 -0.000000
v -0.995929 4.000000 0.575000
v -0.930977 4.129904 0.537500
v -0.801074 4.129904 0.462500
v -0.736122 4.000000 0.425000
v -0.801074 3.870096 0.462500
v -0.930977 3.870096 0.537500
v -0.575000 4.000000 0.995929
v -0.537500 4.129904 0.930977
v -0.462500 4.129904 0.801074
v -0.425000 4.000000 0.736122
v -0.462500 3.870096 0.801074
v -0.537500 3.870096 0.930977
v 0.000000 4.000000 1.150000
v 0.000000 4.129904 1.075000
v 0.000000 4.129904 0.925000
v 0.000000 4.000000 0.850000
v 0.000000 3.870096 0.925000
v 0.000000 3.870096 1.075000
v 0.575000 4.000000 0.995929
v 0.537500 4.129904 0.930977
v 0.462500 4.129904 0.801074
v 0.425000 4.000000 0.736122
v 0.462500 3.870096 0.801074
v 0.537500 3.870096 0.930977
v 0.995929 4.000000 0.575000
v 0.930977 4.129904 0.537500
v 0.801073 4.129904 0.462500
v 0.736122 4.000000 0.425000
v 0.801073 3.870096 0.462500
v 0.930977 3.870096 0.537500
v 1.150000 2.000000 0.000000
v 1.075000 2.129904 0.000000
v 0.925000 2.129904 0.000000
v 0.850000 2.000000 0.000000
v 0.925000 1.870096 0.000000
v 1.075000 1.870096 0.000000
v 0.995929 2.000000 -0.575000
v 0.930977 2.129904 -0.537500
v 0.801073 2.129904 -0.462500
v 0.736122 2.000000 -0.425000
v 0.801073 1.870096 -0.462500
v 0.930977 1.870096 -0.537500
v 0.575000 2.000000 -0.995929
v 0.537500 2.129904 -0.930977
v 0.462500 2.129904 -0.801074
v 0.425000 2.000000 -0.736122
v 0.462500 1.870096 -0.801074
v 0.537500 1.870096 -0.930977
v 0.000000 2.000000 -1.150000
v 0.000000 2.129904 -1.075000
v 0.000000 2.129904 -0.925000
v 0.000000 2.000000 -0.850000
v 0.000000 1.870096 -0.925000
v 0.000000 1.870096 -1.075000
v -0.575000 2.000000 -0.995929
v -0.537500 2.129904 -0.930977
v -0.462500 2.129904 -0.801074
v -0.425000 2.000000 -0.736122
v -0.462500 1.870096 -0.801074
v -0.537500 1.870096 -0.930977
v -0.995929 2.000000 -0.575000
v -0.930977 2.129904 -0.537500
v -0.801073 2.129904 -0.462500
v -0.736121 2.000000 -0.425000
v -0.801073 1.870096 -0.462500
v -0.930977 1.870096 -0.537500
v -1.150000 2.000000 -0.000000
v -1.075000 2.129904 -0.000000
v -0.925000 2.129904 -0.000000
v -0.850000 2.000000 -0.000000
v -0.925000 1.870096 -0.000000
v -1.075000 1.870096 -0.000000
v -0.995929 2.000000 0.575000
v -0.930977 2.129904 0.537500
v -0.801074 2.129904 0.462500
v -0.736122 2.000000 0.425000
v -0.801074 1.870096 0.462500
v -0.930977 1.870096 0.537500
v -0.575000 2.000000 0.995929
v -0.537500 2.129904 0.930977
v -0.462500 2.129904 0.801074
v -0.425000 2.000000 0.736122
v -0.462500 1.870096 0.801074
v -0.537500 1.870096 0.930977
v 0.000000 2.000000 1.150000
v 0.000000 2.129904 1.075000
v 0.000000 2.129904 0.925000
v 0.000000 2.000000 0.850000
v 0.000000 1.870096 0.925000
v 0.000000 1.870096 1.075000
v 0.575000 2.000000 0.995929
v 0.537500 2.129904 0.930977
v 0.462500 2.129904 0.801074
v 0.425000 2.000000 0.736122
v 0.462500 1.870096 0.801074
v 0.537500 1.870096 0.930977
v 0.995929 2.000000 0.575000
v 0.930977 2.129904 0.537500
v 0.801073 2.129904 0.462500
v 0.736122 2.000000 0.425000
v 0.801073 1.870096 0.462500
v 0.930977 1.870096 0.537500
v -1.146947 15.899998 0.000000
v -1.072147 15.899998 -0.129559
v -0.922545 15.899998 -0.129559
v -0.847744 15.899998 0.000000
v -0.922545 15.899998 0.129559
v -1.072147 15.899998 0.129559
v -0.573474 15.899998 -0.993286
v -0.423872 15.899998 -0.993286
v -0.349071 15.899998 -0.863727
v -0.423872 15.899998 -0.734168
v -0.573474 15.899998 -0.734168
v -0.648275 15.899998 -0.863727
v 0.573474 15.899998 -0.993285
v 0.648275 15.899998 -0.863727
v 0.573474 15.899998 -0.734168
v 0.423872 15.899998 -0.734168
v 0.349071 15.899998 -0.863727
v 0.423872 15.899998 -0.993286
v 1.146947 15.899998 0.000000
v 1.072146 15.899998 0.129559
v 0.922545 15.899998 0.129559
v 0.847744 15.899998 -0.000000
v 0.922545 15.899998 -0.129559
v 1.072147 15.899998 -0.129559
v -0.573474 15.899998 0.993286
v -0.648275 15.899998 0.863727
v -0.573474 15.899998 0.734168
v -0.423872 15.899998 0.734168
v -0.349071 15.899998 0.863727
v -0.423872 15.899998 0.993286
v 0.573474 15.899998 0.993286
v 0.423872 15.899998 0.993286
v 0.349071 15.899998 0.863726
v 0.423872 15.899998 0.734168
v 0.573474 15.899998 0.734168
v 0.648275 15.899998 0.863726
v 1.000000 0.000000 1.000000
v 0.917798 0.129904 0.917798
v 0.631787 0.129904 0.631787
v 0.580561 0.000000 0.580561
v 0.631787 -0.129904 0.631787
v 0.917798 -0.129904 0.917798
v -1.000000 0.000000 1.000000
v -0.917798 0.129904 0.917798
v -0.631787 0.129904 0.631787
v -0.580561 0.000000 0.580561
v -0.631787 -0.129904 0.631787
v -0.917798 -0.129904 0.917798
v -1.000000 0.000000 -1.000000
v -0.917798 0.129904 -0.917799
v -0.631787 0.129904 -0.631787
v -0.580561 0.000000 -0.580561
v -0.631787 -0.129904 -0.631787
v -0.917798 -0.129904 -0.917799
v 1.000000 0.000000 -1.000000
v 0.917798 0.129904 -0.917798
v 0.631787 0.129904 -0.631787
v 0.580561 0.000000 -0.580561
v 0.631787 -0.129904 -0.631787
v 0.917798 -0.129904 -0.917798
v -1.000000 16.000000 1.000000
v -0.917798 16.129904 0.917798
v -0.631787 16.129904 0.631787
v -0.580561 16.000000 0.580561
v -0.631787 15.870096 0.631787
v -0.917798 15.870096 0.917798
v -1.000000 16.000000 -1.000000
v -0.917798 16.129904 -0.917799
v -0.631787 16.129904 -0.631787
v -0.580561 16.000000 -0.580561
v -0.631787 15.870096 -0.631787
v -0.917798 15.870096 -0.917799
v 1.000000 16.000000 -1.000000
v 0.917798 16.129904 -0.917798
v 0.631787 16.129904 -0.631787
v 0.580561 16.000000 -0.580561
v 0.631787 15.870096 -0.631787
v 0.917798 15.870096 -0.917798
v 1.000000 16.000000 1.000000
v 0.917798 16.129904 0.917798
v 0.631787 16.129904 0.631787
v 0.580561 16.000000 0.580561
v 0.631787 15.870096 0.631787
v 0.917798 15.870096 0.917798
vt 1.000000 0.500000
vt 1.000000 1.000000
vt 0.833333 1.000000
vt 0.833333 0.500000
vt 0.666667 1.000000
vt 0.666667 0.500000
vt 0.500000 1.000000
vt 0.500000 0.500000
vt 0.333333 1.000000
vt 0.333333 0.500000
vt 0.666667 1.000000
vt 0.833333 1.000000
vt 0.833333 1.000000
vt 0.666667 1.000000
vt 0.166667 1.000000
vt 0.166667 0.500000
vt -0.000000 1.000000
vt -0.000000 0.500000
vt 0.750000 0.490000
vt 0.957846 0.370000
vt 0.957846 0.130000
vt 0.750000 0.010000
vt 0.542154 0.130000
vt 0.542154 0.370000
vt 1.000000 0.500000
vt 1.000000 1.000000
vt 0.833333 1.000000
vt 0.833333 0.500000
vt 0.666667 1.000000
vt 0.666667 0.500000
vt 0.500000 1.000000
vt 0.500000 0.500000
vt 0.333333 1.000000
vt 0.333333 0.500000
vt 0.333333 1.000000
vt 0.166667 1.000000
vt 0.166667 1.000000
vt 0.166667 0.500000
vt -0.000000 1.000000
vt -0.000000 0.500000
vt 0.750000 0.490000
vt 0.957846 0.370000
vt 0.957846 0.130000
vt 0.750000 0.010000
vt 0.542154 0.130000
vt 0.542154 0.370000
vt 1.000000 0.500000
vt 1.000000 1.000000
vt 0.833333 0.500000
vt 0.666667 0.500000
vt 0.500000 1.000000
vt 0.500000 0.500000
vt 0.333333 1.000000
vt 0.333333 0.500000
vt -0.000000 1.000000
vt 0.166667 1.000000
vt 0.166667 1.000000
vt -0.000000 1.000000
vt 0.166667 1.000000
vt 0.166667 0.500000
vt -0.000000 1.000000
vt -0.000000 0.500000
vt 0.750000 0.490000
vt 0.957846 0.370000
vt 0.957846 0.130000
vt 0.750000 0.010000
vt 0.542154 0.130000
vt 0.542154 0.370000
vt 1.000000 0.500000
vt 1.000000 1.000000
vt 0.833333 1.000000
vt 0.833333 0.500000
vt 0.666667 1.000000
vt 0.666667 0.500000
vt 0.500000 1.000000
vt 0.500000 0.500000
vt 0.333333 1.000000
vt 0.333333 0.500000
vt 0.500000 1.000000
vt 0.666667 1.000000
vt 0.666667 1.000000
vt 0.500000 1.000000
vt 0.166667 1.000000
vt 0.166667 0.500000
vt -0.000000 1.000000
vt -0.000000 0.500000
vt 0.750000 0.490000
vt 0.957846 0.370000
vt 0.957846 0.130000
vt 0.750000 0.010000
vt 0.542154 0.130000
vt 0.542154 0.370000
vt 1.000000 0.500000
vt 1.000000 1.000000
vt 0.833333 1.000000
vt 0.833333 0.500000
vt 0.666667 0.500000
vt 0.500000 0.500000
vt 0.333333 1.000000
vt 0.333333 0.500000
vt 0.166667 1.000000
vt -0.000000 1.000000
vt 0.166667 1.000000
vt 0.166667 0.500000
vt -0.000000 1.000000
vt -0.000000 0.500000
vt 0.750000 0.490000
vt 0.957846 0.370000
vt 0.957846 0.130000
vt 0.750000 0.010000
vt 0.542154 0.130000
vt 0.542154 0.370000
vt 1.000000 0.500000
vt 1.000000 1.000000
vt 0.833333 1.000000
vt 0.833333 0.500000
vt 0.666667 1.000000
vt 0.666667 0.500000
vt 0.500000 1.000000
vt 0.500000 0.500000
vt 0.333333 1.000000
vt 0.333333 0.500000
vt 0.666667 1.000000
vt 0.500000 1.000000
vt 0.166667 0.500000
vt -0.000000 0.500000
vt 0.750000 0.490000
vt 0.957846 0.370000
vt 0.957846 0.130000
vt 0.750000 0.010000
vt 0.542154 0.130000
vt 0.542154 0.370000
vt 0.500000 0.500000
vt 0.583333 0.500000
vt 0.583333 0.666667
vt 0.500000 0.666667
vt 0.583333 0.833333
vt 0.500000 0.833333
vt 0.583333 1.000000
vt 0.500000 1.000000
vt 0.500000 -0.000000
vt 0.583333 -0.000000
vt 0.583333 0.166667
vt 0.500000 0.166667
vt 0.583333 0.333333
vt 0.500000 0.333333
vt 0.625000 0.500000
vt 0.666667 0.500000
vt 0.666667 0.666667
vt 0.625000 0.666667
vt 0.666667 0.833333
vt 0.625000 0.833333
vt 0.666667 1.000000
vt 0.625000 1.000000
vt 0.625000 -0.000000
vt 0.666667 -0.000000
vt 0.666667 0.166667
vt 0.625000 0.166667
vt 0.666667 0.333333
vt 0.625000 0.333333
vt 0.750000 0.500000
vt 0.750000 0.666667
vt 0.750000 0.833333
vt 0.750000 1.000000
vt 0.750000 -0.000000
vt 0.750000 0.166667
vt 0.750000 0.333333
vt 0.833333 0.500000
vt 0.833333 0.666667
vt 0.833333 0.833333
vt 0.833333 1.000000
vt 0.833333 -0.000000
vt 0.833333 0.166667
vt 0.833333 0.333333
vt 0.875000 0.500000
vt 0.916667 0.500000
vt 0.916667 0.666667
vt 0.875000 0.666667
vt 0.916667 0.833333
vt 0.875000 0.833333
vt 0.916667 1.000000
vt 0.875000 1.000000
vt 0.875000 -0.000000
vt 0.916667 -0.000000
vt 0.916667 0.166667
vt 0.875000 0.166667
vt 0.916667 0.333333
vt 0.875000 0.333333
vt 1.000000 0.500000
vt 1.000000 0.666667
vt 1.000000 0.833333
vt 1.000000 1.000000
vt 1.000000 -0.000000
vt 1.000000 0.166667
vt 1.000000 0.333333
vt 0.000000 0.500000
vt 0.083333 0.500000
vt 0.083333 0.666667
vt 0.000000 0.666667
vt 0.083333 0.833333
vt 0.000000 0.833333
vt 0.083333 1.000000
vt 0.000000 1.000000
vt 0.000000 -0.000000
vt 0.083333 -0.000000
vt 0.083333 0.166667
vt 0.000000 0.166667
vt 0.083333 0.333333
vt 0.000000 0.333333
vt 0.125000 0.500000
vt 0.166667 0.500000
vt 0.166667 0.666667
vt 0.125000 0.666667
vt 0.166667 0.833333
vt 0.125000 0.833333
vt 0.166667 1.000000
vt 0.125000 1.000000
vt 0.125000 -0.000000
vt 0.166667 -0.000000
vt 0.166667 0.166667
vt 0.125000 0.166667
vt 0.166667 0.333333
vt 0.125000 0.333333
vt 0.250000 0.500000
vt 0.250000 0.666667
vt 0.250000 0.833333
vt 0.250000 1.000000
vt 0.250000 -0.000000
vt 0.250000 0.166667
vt 0.250000 0.333333
vt 0.333333 0.500000
vt 0.333333 0.666667
vt 0.333333 0.833333
vt 0.333333 1.000000
vt 0.333333 -0.000000
vt 0.333333 0.166667
vt 0.333333 0.333333
vt 0.375000 0.500000
vt 0.416667 0.500000
vt 0.416667 0.666667
vt 0.375000 0.666667
vt 0.416667 0.833333
vt 0.375000 0.833333
vt 0.416667 1.000000
vt 0.375000 1.000000
vt 0.375000 -0.000000
vt 0.416667 -0.000000
vt 0.416667 0.166667
vt 0.375000 0.166667
vt 0.416667 0.333333
vt 0.375000 0.333333
vt 0.500000 0.500000
vt 0.583333 0.500000
vt 0.583333 0.666667
vt 0.500000 0.666667
vt 0.583333 0.833333
vt 0.500000 0.833333
vt 0.583333 1.000000
vt 0.500000 1.000000
vt 0.500000 -0.000000
vt 0.583333 -0.000000
vt 0.583333 0.166667
vt 0.500000 0.166667
vt 0.583333 0.333333
vt 0.500000 0.333333
vt 0.625000 0.500000
vt 0.666667 0.500000
vt 0.666667 0.666667
vt 0.625000 0.666667
vt 0.666667 0.833333
vt 0.625000 0.833333
vt 0.666667 1.000000
vt 0.625000 1.000000
vt 0.625000 -0.000000
vt 0.666667 -0.000000
vt 0.666667 0.166667
vt 0.625000 0.166667
vt 0.666667 0.333333
vt 0.625000 0.333333
vt 0.750000 0.500000
vt 0.750000 0.666667
vt 0.750000 0.833333
vt 0.750000 1.000000
vt 0.750000 -0.000000
vt 0.750000 0.166667
vt 0.750000 0.333333
vt 0.833333 0.500000
vt 0.833333 0.666667
vt 0.833333 0.833333
vt 0.833333 1.000000
vt 0.833333 -0.000000
vt 0.833333 0.166667
vt 0.833333 0.333333
vt 0.875000 0.500000
vt 0.916667 0.500000
vt 0.916667 0.666667
vt 0.875000 0.666667
vt 0.916667 0.833333
vt 0.875000 0.833333
vt 0.916667 1.000000
vt 0.875000 1.000000
vt 0.875000 -0.000000
vt 0.916667 -0.000000
vt 0.916667 0.166667
vt 0.875000 0.166667
vt 0.916667 0.333333
vt 0.875000 0.333333
vt 1.000000 0.500000
vt 1.000000 0.666667
vt 1.000000 0.833333
vt 1.000000 1.000000
vt 1.000000 -0.000000
vt 1.000000 0.166667
vt 1.000000 0.333333
vt 0.000000 0.500000
vt 0.083333 0.500000
vt 0.083333 0.666667
vt 0.000000 0.666667
vt 0.083333 0.833333
vt 0.000000 0.833333
vt 0.083333 1.000000
vt 0.000000 1.000000
vt 0.000000 -0.000000
vt 0.083333 -0.000000
vt 0.083333 0.166667
vt 0.000000 0.166667
vt 0.083333 0.333333
vt 0.000000 0.333333
vt 0.125000 0.500000
vt 0.166667 0.500000
vt 0.166667 0.666667
vt 0.125000 0.666667
vt 0.166667 0.833333
vt 0.125000 0.833333
vt 0.166667 1.000000
vt 0.125000 1.000000
vt 0.125000 -0.000000
vt 0.166667 -0.000000
vt 0.166667 0.166667
vt 0.125000 0.166667
vt 0.166667 0.333333
vt 0.125000 0.333333
vt 0.250000 0.500000
vt 0.250000 0.666667
vt 0.250000 0.833333
vt 0.250000 1.000000
vt 0.250000 -0.000000
vt 0.250000 0.166667
vt 0.250000 0.333333
vt 0.333333 0.500000
vt 0.333333 0.666667
vt 0.333333 0.833333
vt 0.333333 1.000000
vt 0.333333 -0.000000
vt 0.333333 0.166667
vt 0.333333 0.333333
vt 0.375000 0.500000
vt 0.416667 0.500000
vt 0.416667 0.666667
vt 0.375000 0.666667
vt 0.416667 0.833333
vt 0.375000 0.833333
vt 0.416667 1.000000
vt 0.375000 1.000000
vt 0.375000 -0.000000
vt 0.416667 -0.000000
vt 0.416667 0.166667
vt 0.375000 0.166667
vt 0.416667 0.333333
vt 0.375000 0.333333
vt 0.500000 0.500000
vt 0.583333 0.500000
vt 0.583333 0.666667
vt 0.500000 0.666667
vt 0.583333 0.833333
vt 0.500000 0.833333
vt 0.583333 1.000000
vt 0.500000 1.000000
vt 0.500000 -0.000000
vt 0.583333 -0.000000
vt 0.583333 0.166667
vt 0.500000 0.166667
vt 0.583333 0.333333
vt 0.500000 0.333333
vt 0.666667 0.500000
vt 0.666667 0.666667
vt 0.666667 0.833333
vt 0.666667 1.000000
vt 0.666667 -0.000000
vt 0.666667 0.166667
vt 0.666667 0.333333
vt 0.750000 0.500000
vt 0.750000 0.666667
vt 0.750000 0.833333
vt 0.750000 1.000000
vt 0.750000 -0.000000
vt 0.750000 0.166667
vt 0.750000 0.333333
vt 0.833333 0.500000
vt 0.833333 0.666667
vt 0.833333 0.833333
vt 0.833333 1.000000
vt 0.833333 -0.000000
vt 0.833333 0.166667
vt 0.833333 0.333333
vt 0.916667 0.500000
vt 0.916667 0.666667
vt 0.916667 0.833333
vt 0.916667 1.000000
vt 0.916667 -0.000000
vt 0.916667 0.166667
vt 0.916667 0.333333
vt 1.000000 0.500000
vt 1.000000 0.666667
vt 1.000000 0.833333
vt 1.000000 1.000000
vt 1.000000 -0.000000
vt 1.000000 0.166667
vt 1.000000 0.333333
vt 0.000000 0.500000
vt 0.083333 0.500000
vt 0.083333 0.666667
vt 0.000000 0.666667
vt 0.083333 0.833333
vt 0.000000 0.833333
vt 0.083333 1.000000
vt 0.000000 1.000000
vt 0.000000 -0.000000
vt 0.083333 -0.000000
vt 0.083333 0.166667
vt 0.000000 0.166667
vt 0.083333 0.333333
vt 0.000000 0.333333
vt 0.166667 0.500000
vt 0.166667 0.666667
vt 0.166667 0.833333
vt 0.166667 1.000000
vt 0.166667 -0.000000
vt 0.166667 0.166667
vt 0.166667 0.333333
vt 0.250000 0.500000
vt 0.250000 0.666667
vt 0.250000 0.833333
vt 0.250000 1.000000
vt 0.250000 -0.000000
vt 0.250000 0.166667
vt 0.250000 0.333333
vt 0.333333 0.500000
vt 0.333333 0.666667
vt 0.333333 0.833333
vt 0.333333 1.000000
vt 0.333333 -0.000000
vt 0.333333 0.166667
vt 0.333333 0.333333
vt 0.416667 0.500000
vt 0.416667 0.666667
vt 0.416667 0.833333
vt 0.416667 1.000000
vt 0.416667 -0.000000
vt 0.416667 0.166667
vt 0.416667 0.333333
vt 0.500000 0.500000
vt 0.583333 0.500000
vt 0.583333 0.666667
vt 0.500000 0.666667
vt 0.583333 0.833333
vt 0.500000 0.833333
vt 0.583333 1.000000
vt 0.500000 1.000000
vt 0.500000 -0.000000
vt 0.583333 -0.000000
vt 0.583333 0.166667
vt 0.500000 0.166667
vt 0.583333 0.333333
vt 0.500000 0.333333
vt 0.666667 0.500000
vt 0.666667 0.666667
vt 0.666667 0.833333
vt 0.666667 1.000000
vt 0.666667 -0.000000
vt 0.666667 0.166667
vt 0.666667 0.333333
vt 0.750000 0.500000
vt 0.750000 0.666667
vt 0.750000 0.833333
vt 0.750000 1.000000
vt 0.750000 -0.000000
vt 0.750000 0.166667
vt 0.750000 0.333333
vt 0.833333 0.500000
vt 0.833333 0.666667
vt 0.833333 0.833333
vt 0.833333 1.000000
vt 0.833333 -0.000000
vt 0.833333 0.166667
vt 0.833333 0.333333
vt 0.916667 0.500000
vt 0.916667 0.666667
vt 0.916667 0.833333
vt 0.916667 1.000000
vt 0.916667 -0.000000
vt 0.916667 0.166667
vt 0.916667 0.333333
vt 1.000000 0.500000
vt 1.000000 0.666667
vt 1.000000 0.833333
vt 1.000000 1.000000
vt 1.000000 -0.000000
vt 1.000000 0.166667
vt 1.000000 0.333333
vt 0.000000 0.500000
vt 0.083333 0.500000
vt 0.083333 0.666667
vt 0.000000 0.666667
vt 0.083333 0.833333
vt 0.000000 0.833333
vt 0.083333 1.000000
vt 0.000000 1.000000
vt 0.000000 -0.000000
vt 0.083333 -0.000000
vt 0.083333 0.166667
vt 0.000000 0.166667
vt 0.083333 0.333333
vt 0.000000 0.333333
vt 0.166667 0.500000
vt 0.166667 0.666667
vt 0.166667 0.833333
vt 0.166667 1.000000
vt 0.166667 -0.000000
vt 0.166667 0.166667
vt 0.166667 0.333333
vt 0.250000 0.500000
vt 0.250000 0.666667
vt 0.250000 0.833333
vt 0.250000 1.000000
vt 0.250000 -0.000000
vt 0.250000 0.166667
vt 0.250000 0.333333
vt 0.333333 0.500000
vt 0.333333 0.666667
vt 0.333333 0.833333
vt 0.333333 1.000000
vt 0.333333 -0.000000
vt 0.333333 0.166667
vt 0.333333 0.333333
vt 0.416667 0.500000
vt 0.416667 0.666667
vt 0.416667 0.833333
vt 0.416667 1.000000
vt 0.416667 -0.000000
vt 0.416667 0.166667
vt 0.416667 0.333333
vt 0.500000 0.500000
vt 0.583333 0.500000
vt 0.583333 0.666667
vt 0.500000 0.666667
vt 0.583333 0.833333
vt 0.500000 0.833333
vt 0.583333 1.000000
vt 0.500000 1.000000
vt 0.500000 -0.000000
vt 0.583333 -0.000000
vt 0.583333 0.166667
vt 0.500000 0.166667
vt 0.583333 0.333333
vt 0.500000 0.333333
vt 0.666667 0.500000
vt 0.666667 0.666667
vt 0.666667 0.833333
vt 0.666667 1.000000
vt 0.666667 -0.000000
vt 0.666667 0.166667
vt 0.666667 0.333333
vt 0.750000 0.500000
vt 0.750000 0.666667
vt 0.750000 0.833333
vt 0.750000 1.000000
vt 0.750000 -0.000000
vt 0.750000 0.166667
vt 0.750000 0.333333
vt 0.833333 0.500000
vt 0.833333 0.666667
vt 0.833333 0.833333
vt 0.833333 1.000000
vt 0.833333 -0.000000
vt 0.833333 0.166667
vt 0.833333 0.333333
vt 0.916667 0.500000
vt 0.916667 0.666667
vt 0.916667 0.833333
vt 0.916667 1.000000
vt 0.916667 -0.000000
vt 0.916667 0.166667
vt 0.916667 0.333333
vt 1.000000 0.500000
vt 1.000000 0.666667
vt 1.000000 0.833333
vt 1.000000 1.000000
vt 1.000000 -0.000000
vt 1.000000 0.166667
vt 1.000000 0.333333
vt 0.000000 0.500000
vt 0.083333 0.500000
vt 0.083333 0.666667
vt 0.000000 0.666667
vt 0.083333 0.833333
vt 0.000000 0.833333
vt 0.083333 1.000000
vt 0.000000 1.000000
vt 0.000000 -0.000000
vt 0.083333 -0.000000
vt 0.083333 0.166667
vt 0.000000 0.166667
vt 0.083333 0.333333
vt 0.000000 0.333333
vt 0.166667 0.500000
vt 0.166667 0.666667
vt 0.166667 0.833333
vt 0.166667 1.000000
vt 0.166667 -0.000000
vt 0.166667 0.166667
vt 0.166667 0.333333
vt 0.250000 0.500000
vt 0.250000 0.666667
vt 0.250000 0.833333
vt 0.250000 1.000000
vt 0.250000 -0.000000
vt 0.250000 0.166667
vt 0.250000 0.333333
vt 0.333333 0.500000
vt 0.333333 0.666667
vt 0.333333 0.833333
vt 0.333333 1.000000
vt 0.333333 -0.000000
vt 0.333333 0.166667
vt 0.333333 0.333333
vt 0.416667 0.500000
vt 0.416667 0.666667
vt 0.416667 0.833333
vt 0.416667 1.000000
vt 0.416667 -0.000000
vt 0.416667 0.166667
vt 0.416667 0.333333
vt 0.500000 0.500000
vt 0.583333 0.500000
vt 0.583333 0.666667
vt 0.500000 0.666667
vt 0.583333 0.833333
vt 0.500000 0.833333
vt 0.583333 1.000000
vt 0.500000 1.000000
vt 0.500000 -0.000000
vt 0.583333 -0.000000
vt 0.583333 0.166667
vt 0.500000 0.166667
vt 0.583333 0.333333
vt 0.500000 0.333333
vt 0.666667 0.500000
vt 0.666667 0.666667
vt 0.666667 0.833333
vt 0.666667 1.000000
vt 0.666667 -0.000000
vt 0.666667 0.166667
vt 0.666667 0.333333
vt 0.750000 0.500000
vt 0.750000 0.666667
vt 0.750000 0.833333
vt 0.750000 1.000000
vt 0.750000 -0.000000
vt 0.750000 0.166667
vt 0.750000 0.333333
vt 0.833333 0.500000
vt 0.833333 0.666667
vt 0.833333 0.833333
vt 0.833333 1.000000
vt 0.833333 -0.000000
vt 0.833333 0.166667
vt 0.833333 0.333333
vt 0.916667 0.500000
vt 0.916667 0.666667
vt 0.916667 0.833333
vt 0.916667 1.000000
vt 0.916667 -0.000000
vt 0.916667 0.166667
vt 0.916667 0.333333
vt 1.000000 0.500000
vt 1.000000 0.666667
vt 1.000000 0.833333
vt 1.000000 1.000000
vt 1.000000 -0.000000
vt 1.000000 0.166667
vt 1.000000 0.333333
vt 0.000000 0.500000
vt 0.083333 0.500000
vt 0.083333 0.666667
vt 0.000000 0.666667
vt 0.083333 0.833333
vt 0.000000 0.833333
vt 0.083333 1.000000
vt 0.000000 1.000000
vt 0.000000 -0.000000
vt 0.083333 -0.000000
vt 0.083333 0.166667
vt 0.000000 0.166667
vt 0.083333 0.333333
vt 0.000000 0.333333
vt 0.166667 0.500000
vt 0.166667 0.666667
vt 0.166667 0.833333
vt 0.166667 1.000000
vt 0.166667 -0.000000
vt 0.166667 0.166667
vt 0.166667 0.333333
vt 0.250000 0.500000
vt 0.250000 0.666667
vt 0.250000 0.833333
vt 0.250000 1.000000
vt 0.250000 -0.000000
vt 0.250000 0.166667
vt 0.250000 0.333333
vt 0.333333 0.500000
vt 0.333333 0.666667
vt 0.333333 0.833333
vt 0.333333 1.000000
vt 0.333333 -0.000000
vt 0.333333 0.166667
vt 0.333333 0.333333
vt 0.416667 0.500000
vt 0.416667 0.666667
vt 0.416667 0.833333
vt 0.416667 1.000000
vt 0.416667 -0.000000
vt 0.416667 0.166667
vt 0.416667 0.333333
vt 0.500000 0.500000
vt 0.583333 0.500000
vt 0.583333 0.666667
vt 0.500000 0.666667
vt 0.583333 0.833333
vt 0.500000 0.833333
vt 0.583333 1.000000
vt 0.500000 1.000000
vt 0.500000 -0.000000
vt 0.583333 -0.000000
vt 0.583333 0.166667
vt 0.500000 0.166667
vt 0.583333 0.333333
vt 0.500000 0.333333
vt 0.666667 0.500000
vt 0.666667 0.666667
vt 0.666667 0.833333
vt 0.666667 1.000000
vt 0.666667 -0.000000
vt 0.666667 0.166667
vt 0.666667 0.333333
vt 0.750000 0.500000
vt 0.750000 0.666667
vt 0.750000 0.833333
vt 0.750000 1.000000
vt 0.750000 -0.000000
vt 0.750000 0.166667
vt 0.750000 0.333333
vt 0.833333 0.500000
vt 0.833333 0.666667
vt 0.833333 0.833333
vt 0.833333 1.000000
vt 0.833333 -0.000000
vt 0.833333 0.166667
vt 0.833333 0.333333
vt 0.916667 0.500000
vt 0.916667 0.666667
vt 0.916667 0.833333
vt 0.916667 1.000000
vt 0.916667 -0.000000
vt 0.916667 0.166667
vt 0.916667 0.333333
vt 1.000000 0.500000
vt 1.000000 0.666667
vt 1.000000 0.833333
vt 1.000000 1.000000
vt 1.000000 -0.000000
vt 1.000000 0.166667
vt 1.000000 0.333333
vt 0.000000 0.500000
vt 0.083333 0.500000
vt 0.083333 0.666667
vt 0.000000 0.666667
vt 0.083333 0.833333
vt 0.000000 0.833333
vt 0.083333 1.000000
vt 0.000000 1.000000
vt 0.000000 -0.000000
vt 0.083333 -0.000000
vt 0.083333 0.166667
vt 0.000000 0.166667
vt 0.083333 0.333333
vt 0.000000 0.333333
vt 0.166667 0.500000
vt 0.166667 0.666667
vt 0.166667 0.833333
vt 0.166667 1.000000
vt 0.166667 -0.000000
vt 0.166667 0.166667
vt 0.166667 0.333333
vt 0.250000 0.500000
vt 0.250000 0.666667
vt 0.250000 0.833333
vt 0.250000 1.000000
vt 0.250000 -0.000000
vt 0.250000 0.166667
vt 0.250000 0.333333
vt 0.333333 0.500000
vt 0.333333 0.666667
vt 0.333333 0.833333
vt 0.333333 1.000000
vt 0.333333 -0.000000
vt 0.333333 0.166667
vt 0.333333 0.333333
vt 0.416667 0.500000
vt 0.416667 0.666667
vt 0.416667 0.833333
vt 0.416667 1.000000
vt 0.416667 -0.000000
vt 0.416667 0.166667
vt 0.416667 0.333333
vt 0.500000 0.500000
vt 0.583333 0.500000
vt 0.583333 0.666667
vt 0.500000 0.666667
vt 0.583333 0.833333
vt 0.500000 0.833333
vt 0.583333 1.000000
vt 0.500000 1.000000
vt 0.500000 -0.000000
vt 0.583333 -0.000000
vt 0.583333 0.166667
vt 0.500000 0.166667
vt 0.583333 0.333333
vt 0.500000 0.333333
vt 0.666667 0.500000
vt 0.666667 0.666667
vt 0.666667 0.833333
vt 0.666667 1.000000
vt 0.666667 -0.000000
vt 0.666667 0.166667
vt 0.666667 0.333333
vt 0.750000 0.500000
vt 0.750000 0.666667
vt 0.750000 0.833333
vt 0.750000 1.000000
vt 0.750000 -0.000000
vt 0.750000 0.166667
vt 0.750000 0.333333
vt 0.833333 0.500000
vt 0.833333 0.666667
vt 0.833333 0.833333
vt 0.833333 1.000000
vt 0.833333 -0.000000
vt 0.833333 0.166667
vt 0.833333 0.333333
vt 0.916667 0.500000
vt 0.916667 0.666667
vt 0.916667 0.833333
vt 0.916667 1.000000
vt 0.916667 -0.000000
vt 0.916667 0.166667
vt 0.916667 0.333333
vt 1.000000 0.500000
vt 1.000000 0.666667
vt 1.000000 0.833333
vt 1.000000 1.000000
vt 1.000000 -0.000000
vt 1.000000 0.166667
vt 1.000000 0.333333
vt 0.000000 0.500000
vt 0.083333 0.500000
vt 0.083333 0.666667
vt 0.000000 0.666667
vt 0.083333 0.833333
vt 0.000000 0.833333
vt 0.083333 1.000000
vt 0.000000 1.000000
vt 0.000000 -0.000000
vt 0.083333 -0.000000
vt 0.083333 0.166667
vt 0.000000 0.166667
vt 0.083333 0.333333
vt 0.000000 0.333333
vt 0.166667 0.500000
vt 0.166667 0.666667
vt 0.166667 0.833333
vt 0.166667 1.000000
vt 0.166667 -0.000000
vt 0.166667 0.166667
vt 0.166667 0.333333
vt 0.250000 0.500000
vt 0.250000 0.666667
vt 0.250000 0.833333
vt 0.250000 1.000000
vt 0.250000 -0.000000
vt 0.250000 0.166667
vt 0.250000 0.333333
vt 0.333333 0.500000
vt 0.333333 0.666667
vt 0.333333 0.833333
vt 0.333333 1.000000
vt 0.333333 -0.000000
vt 0.333333 0.166667
vt 0.333333 0.333333
vt 0.416667 0.500000
vt 0.416667 0.666667
vt 0.416667 0.833333
vt 0.416667 1.000000
vt 0.416667 -0.000000
vt 0.416667 0.166667
vt 0.416667 0.333333
vt 0.500000 0.500000
vt 0.583333 0.500000
vt 0.583333 0.666667
vt 0.500000 0.666667
vt 0.583333 0.833333
vt 0.500000 0.833333
vt 0.583333 1.000000
vt 0.500000 1.000000
vt 0.500000 -0.000000
vt 0.583333 -0.000000
vt 0.583333 0.166667
vt 0.500000 0.166667
vt 0.583333 0.333333
vt 0.500000 0.333333
vt 0.666667 0.500000
vt 0.666667 0.666667
vt 0.666667 0.833333
vt 0.666667 1.000000
vt 0.666667 -0.000000
vt 0.666667 0.166667
vt 0.666667 0.333333
vt 0.750000 0.500000
vt 0.750000 0.666667
vt 0.750000 0.833333
vt 0.750000 1.000000
vt 0.750000 -0.000000
vt 0.750000 0.166667
vt 0.750000 0.333333
vt 0.833333 0.500000
vt 0.833333 0.666667
vt 0.833333 0.833333
vt 0.833333 1.000000
vt 0.833333 -0.000000
vt 0.833333 0.166667
vt 0.833333 0.333333
vt 0.916667 0.500000
vt 0.916667 0.666667
vt 0.916667 0.833333
vt 0.916667 1.000000
vt 0.916667 -0.000000
vt 0.916667 0.166667
vt 0.916667 0.333333
vt 1.000000 0.500000
vt 1.000000 0.666667
vt 1.000000 0.833333
vt 1.000000 1.000000
vt 1.000000 -0.000000
vt 1.000000 0.166667
vt 1.000000 0.333333
vt 0.000000 0.500000
vt 0.083333 0.500000
vt 0.083333 0.666667
vt 0.000000 0.666667
vt 0.083333 0.833333
vt 0.000000 0.833333
vt 0.083333 1.000000
vt 0.000000 1.000000
vt 0.000000 -0.000000
vt 0.083333 -0.000000
vt 0.083333 0.166667
vt 0.000000 0.166667
vt 0.083333 0.333333
vt 0.000000 0.333333
vt 0.166667 0.500000
vt 0.166667 0.666667
vt 0.166667 0.833333
vt 0.166667 1.000000
vt 0.166667 -0.000000
vt 0.166667 0.166667
vt 0.166667 0.333333
vt 0.250000 0.500000
vt 0.250000 0.666667
vt 0.250000 0.833333
vt 0.250000 1.000000
vt 0.250000 -0.000000
vt 0.250000 0.166667
vt 0.250000 0.333333
vt 0.333333 0.500000
vt 0.333333 0.666667
vt 0.333333 0.833333
vt 0.333333 1.000000
vt 0.333333 -0.000000
vt 0.333333 0.166667
vt 0.333333 0.333333
vt 0.416667 0.500000
vt 0.416667 0.666667
vt 0.416667 0.833333
vt 0.416667 1.000000
vt 0.416667 -0.000000
vt 0.416667 0.166667
vt 0.416667 0.333333
vt 0.500000 0.500000
vt 0.583333 0.500000
vt 0.583333 0.666667
vt 0.500000 0.666667
vt 0.583333 0.833333
vt 0.500000 0.833333
vt 0.583333 1.000000
vt 0.500000 1.000000
vt 0.500000 -0.000000
vt 0.583333 -0.000000
vt 0.583333 0.166667
vt 0.500000 0.166667
vt 0.583333 0.333333
vt 0.500000 0.333333
vt 0.666667 0.500000
vt 0.666667 0.666667
vt 0.666667 0.833333
vt 0.666667 1.000000
vt 0.666667 -0.000000
vt 0.666667 0.166667
vt 0.666667 0.333333
vt 0.750000 0.500000
vt 0.750000 0.666667
vt 0.750000 0.833333
vt 0.750000 1.000000
vt 0.750000 -0.000000
vt 0.750000 0.166667
vt 0.750000 0.333333
vt 0.833333 0.500000
vt 0.833333 0.666667
vt 0.833333 0.833333
vt 0.833333 1.000000
vt 0.833333 -0.000000
vt 0.833333 0.166667
vt 0.833333 0.333333
vt 0.916667 0.500000
vt 0.916667 0.666667
vt 0.916667 0.833333
vt 0.916667 1.000000
vt 0.916667 -0.000000
vt 0.916667 0.166667
vt 0.916667 0.333333
vt 1.000000 0.500000
vt 1.000000 0.666667
vt 1.000000 0.833333
vt 1.000000 1.000000
vt 1.000000 -0.000000
vt 1.000000 0.166667
vt 1.000000 0.333333
vt 0.000000 0.500000
vt 0.083333 0.500000
vt 0.083333 0.666667
vt 0.000000 0.666667
vt 0.083333 0.833333
vt 0.000000 0.833333
vt 0.083333 1.000000
vt 0.000000 1.000000
vt 0.000000 -0.000000
vt 0.083333 -0.000000
vt 0.083333 0.166667
vt 0.000000 0.166667
vt 0.083333 0.333333
vt 0.000000 0.333333
vt 0.166667 0.500000
vt 0.166667 0.666667
vt 0.166667 0.833333
vt 0.166667 1.000000
vt 0.166667 -0.000000
vt 0.166667 0.166667
vt 0.166667 0.333333
vt 0.250000 0.500000
vt 0.250000 0.666667
vt 0.250000 0.833333
vt 0.250000 1.000000
vt 0.250000 -0.000000
vt 0.250000 0.166667
vt 0.250000 0.333333
vt 0.333333 0.500000
vt 0.333333 0.666667
vt 0.333333 0.833333
vt 0.333333 1.000000
vt 0.333333 -0.000000
vt 0.333333 0.166667
vt 0.333333 0.333333
vt 0.416667 0.500000
vt 0.416667 0.666667
vt 0.416667 0.833333
vt 0.416667 1.000000
vt 0.416667 -0.000000
vt 0.416667 0.166667
vt 0.416667 0.333333
vt 0.457846 0.370000
vt 0.250000 0.490000
vt 0.042154 0.370000
vt 0.042154 0.130000
vt 0.250000 0.010000
vt 0.457846 0.130000
vt 0.457846 0.370000
vt 0.250000 0.490000
vt 0.042154 0.370000
vt 0.042154 0.130000
vt 0.250000 0.010000
vt 0.457846 0.130000
vt 0.457846 0.370000
vt 0.250000 0.490000
vt 0.042154 0.370000
vt 0.042154 0.130000
vt 0.250000 0.010000
vt 0.457846 0.130000
vt 0.457846 0.370000
vt 0.250000 0.490000
vt 0.042154 0.370000
vt 0.042154 0.130000
vt 0.250000 0.010000
vt 0.457846 0.130000
vt 0.457846 0.370000
vt 0.250000 0.490000
vt 0.042154 0.370000
vt 0.042154 0.130000
vt 0.250000 0.010000
vt 0.457846 0.130000
vt 0.457846 0.370000
vt 0.250000 0.490000
vt 0.042154 0.370000
vt 0.042154 0.130000
vt 0.250000 0.010000
vt 0.457846 0.130000
vt 0.333333 1.000000
vt 0.166667 1.000000
vt 1.000000 1.000000
vt 0.833333 1.000000
vt 0.833333 1.000000
vt 0.666667 1.000000
vt 1.000000 1.000000
vt 0.833333 1.000000
vt 0.333333 1.000000
vt 0.333333 1.000000
vt -0.000000 1.000000
vt 0.500000 1.000000
vt -0.000000 1.000000
vt 0.500000 1.000000
vt 0.666667 1.000000
vt 0.166667 1.000000
vt 0.666667 1.000000
vt 0.166667 1.000000
vt 1.000000 1.000000
vt 0.833333 1.000000
vt 1.000000 1.000000
vt 0.833333 1.000000
vt 0.333333 1.000000
vt 0.333333 1.000000
vt 0.500000 1.000000
vt -0.000000 1.000000
vt 0.500000 1.000000
vt -0.000000 1.000000
vt 1.000000 1.000000
vt 1.000000 1.000000
vn -0.7924 -0.6100 0.0000
vn -0.9604 -0.2785 0.0000
vn -0.4319 -0.1319 -0.8922
vn -0.3962 -0.6100 -0.6862
vn 0.5445 0.1057 -0.8321
vn 0.3962 -0.6100 -0.6862
vn 0.9825 0.1865 0.0000
vn 0.7924 -0.6100 0.0000
vn 0.5445 0.1057 0.8321
vn 0.3962 -0.6100 0.6862
vn 0.4483 0.1057 0.8876
vn 0.9886 -0.1319 0.0720
vn 0.8751 0.4747 -0.0942
vn 0.4654 0.6504 0.6002
vn -0.4319 -0.1319 0.8922
vn -0.3962 -0.6100 0.6862
vn -0.4802 -0.2785 -0.8318
vn 0.5567 -0.1319 -0.8202
vn 0.9928 0.1057 0.0555
vn 0.4912 0.1865 0.8508
vn -0.4483 0.1057 0.8876
vn 0.2871 0.6504 0.7032
vn -0.5191 0.4747 0.7107
vn -0.9886 -0.1319 0.0720
vn 0.4802 -0.2785 -0.8318
vn -0.4912 0.1865 0.8508
vn -0.9928 0.1057 0.0555
vn 0.4802 -0.2785 0.8318
vn 0.9886 -0.1319 -0.0720
vn 0.8751 0.4747 0.0942
vn 0.4557 0.4115 0.7893
vn -0.5567 -0.1319 -0.8202
vn 0.9604 -0.2785 0.0000
vn 0.4319 -0.1319 0.8922
vn -0.5445 0.1057 0.8321
vn -0.9825 0.1865 0.0000
vn -0.5445 0.1057 -0.8321
vn 0.4912 0.1865 -0.8508
vn -0.4483 0.1057 -0.8876
vn -0.4654 0.6504 -0.6002
vn 0.3282 0.7544 -0.5685
vn 0.4319 -0.1319 -0.8922
vn -0.4802 -0.2785 0.8318
vn -0.9886 -0.1319 -0.0720
vn 0.9928 0.1057 -0.0555
vn -0.3559 0.4747 -0.8049
vn 0.4557 0.4115 -0.7893
vn 0.5567 -0.1319 0.8202
vn -0.5567 -0.1319 0.8202
vn -0.9928 0.1057 -0.0555
vn -0.4912 0.1865 -0.8508
vn 0.4483 0.1057 -0.8876
vn 0.7526 0.6504 -0.1030
vn 0.3282 0.7544 0.5685
vn 1.0000 0.0000 0.0000
vn 0.9926 0.0000 -0.1217
vn 0.4695 0.8800 -0.0720
vn 0.5573 0.8303 0.0000
vn -0.3745 0.9016 0.2162
vn -0.4324 0.9016 0.0000
vn -0.8660 0.0000 0.5000
vn -1.0000 0.0000 0.0000
vn -0.3745 -0.9016 0.2162
vn -0.4324 -0.9016 0.0000
vn 0.4695 -0.8800 -0.0720
vn 0.5573 -0.8303 0.0000
vn 0.7071 0.0000 -0.7071
vn 0.1217 0.0000 -0.9926
vn 0.0720 0.8800 -0.4695
vn 0.4022 0.8224 -0.4022
vn -0.2162 0.9016 0.3745
vn -0.3581 0.8623 0.3581
vn -0.5000 0.0000 0.8660
vn -0.7071 0.0000 0.7071
vn -0.2162 -0.9016 0.3745
vn -0.3581 -0.8623 0.3581
vn 0.0720 -0.8800 -0.4695
vn 0.4022 -0.8224 -0.4022
vn 0.0000 0.0000 -1.0000
vn 0.0000 0.8303 -0.5573
vn 0.0000 0.9016 0.4324
vn 0.0000 0.0000 1.0000
vn 0.0000 -0.9016 0.4324
vn 0.0000 -0.8303 -0.5573
vn -0.1217 0.0000 -0.9926
vn -0.0720 0.8800 -0.4695
vn 0.2162 0.9016 0.3745
vn 0.5000 0.0000 0.8660
vn 0.2162 -0.9016 0.3745
vn -0.0720 -0.8800 -0.4695
vn -0.7071 0.0000 -0.7071
vn -0.9926 0.0000 -0.1217
vn -0.4695 0.8800 -0.0720
vn -0.4022 0.8224 -0.4022
vn 0.3745 0.9016 0.2162
vn 0.3581 0.8623 0.3581
vn 0.8660 0.0000 0.5000
vn 0.7071 0.0000 0.7071
vn 0.3745 -0.9016 0.2162
vn 0.3581 -0.8623 0.3581
vn -0.4695 -0.8800 -0.0720
vn -0.4022 -0.8224 -0.4022
vn -0.5573 0.8303 0.0000
vn 0.4324 0.9016 0.0000
vn 0.4324 -0.9016 0.0000
vn -0.5573 -0.8303 0.0000
vn -0.9926 0.0000 0.1217
vn -0.4695 0.8800 0.0720
vn 0.3745 0.9016 -0.2162
vn 0.8660 0.0000 -0.5000
vn 0.3745 -0.9016 -0.2162
vn -0.4695 -0.8800 0.0720
vn -0.1217 0.0000 0.9926
vn -0.0720 0.8800 0.4695
vn -0.4022 0.8224 0.4022
vn 0.2162 0.9016 -0.3745
vn 0.3581 0.8623 -0.3581
vn 0.5000 0.0000 -0.8660
vn 0.2162 -0.9016 -0.3745
vn 0.3581 -0.8623 -0.3581
vn -0.0720 -0.8800 0.4695
vn -0.4022 -0.8224 0.4022
vn 0.0000 0.8303 0.5573
vn 0.0000 0.9016 -0.4324
vn 0.0000 -0.9016 -0.4324
vn 0.0000 -0.8303 0.5573
vn 0.1217 0.0000 0.9926
vn 0.0720 0.8800 0.4695
vn -0.2162 0.9016 -0.3745
vn -0.5000 0.0000 -0.8660
vn -0.2162 -0.9016 -0.3745
vn 0.0720 -0.8800 0.4695
vn 0.9926 0.0000 0.1217
vn 0.4695 0.8800 0.0720
vn 0.4022 0.8224 0.4022
vn -0.3745 0.9016 -0.2162
vn -0.3581 0.8623 -0.3581
vn -0.8660 0.0000 -0.5000
vn -0.3745 -0.9016 -0.2162
vn -0.3581 -0.8623 -0.3581
vn 0.4695 -0.8800 0.0720
vn 0.4022 -0.8224 0.4022
vn 0.4827 0.8303 -0.2786
vn 0.4827 -0.8303 -0.2786
vn 0.2786 0.8303 -0.4827
vn 0.2786 -0.8303 -0.4827
vn -0.2786 0.8303 -0.4827
vn -0.2786 -0.8303 -0.4827
vn -0.4827 0.8303 -0.2786
vn -0.4827 -0.8303 -0.2786
vn -0.4827 0.8303 0.2786
vn -0.4827 -0.8303 0.2786
vn -0.2786 0.8303 0.4827
vn -0.2786 -0.8303 0.4827
vn 0.2786 0.8303 0.4827
vn 0.2786 -0.8303 0.4827
vn 0.4827 0.8303 0.2786
vn 0.4827 -0.8303 0.2786
vn -0.5191 0.4747 -0.7107
vn -0.9114 0.4115 0.0000
vn 0.6564 0.7544 0.0000
vn 0.2871 0.6504 -0.7032
vn 0.3559 0.4747 -0.8049
vn -0.4557 0.4115 -0.7893
vn -0.8751 0.4747 -0.0942
vn -0.4654 0.6504 0.6002
vn -0.7526 0.6504 -0.1030
vn -0.3282 0.7544 0.5685
vn 0.5191 0.4747 0.7107
vn 0.9114 0.4115 0.0000
vn 0.5191 0.4747 -0.7107
vn -0.2871 0.6504 -0.7032
vn -0.6564 0.7544 0.0000
vn -0.2871 0.6504 0.7032
vn -0.8751 0.4747 0.0942
vn -0.4557 0.4115 0.7893
vn 0.3559 0.4747 0.8049
vn 0.7526 0.6504 0.1030
vn -0.3559 0.4747 0.8049
vn 0.4654 0.6504 -0.6002
vn -0.3282 0.7544 -0.5685
vn -0.7526 0.6504 0.1030
usemtl Metal
s 1
f 1/1/1 2/2/2 4/3/3 3/4/4
f 3/4/4 4/3/3 6/5/5 5/6/6
f 5/6/6 6/5/5 8/7/7 7/8/8
f 7/8/8 8/7/7 10/9/9 9/10/10
f 30/11/11 28/12/12 806/13/13 807/14/14
f 9/10/10 10/9/9 12/15/15 11/16/16
f 11/16/16 12/15/15 2/17/2 1/18/1
f 1/19/1 3/20/4 5/21/6 7/22/8 9/23/10 11/24/16
f 13/25/4 14/26/17 16/27/18 15/28/6
f 15/28/6 16/27/18 18/29/19 17/30/8
f 17/30/8 18/29/19 20/31/20 19/32/10
f 19/32/10 20/31/20 22/33/21 21/34/16
f 12/15/15 10/9/9 797/35/22 798/36/23
f 21/34/16 22/33/21 24/37/24 23/38/1
f 23/38/1 24/37/24 14/39/17 13/40/4
f 13/41/4 15/42/6 17/43/8 19/44/10 21/45/16 23/46/1
f 25/47/6 26/48/25 28/12/12 27/49/8
f 27/49/8 28/12/12 30/11/11 29/50/10
f 29/50/10 30/11/11 32/51/26 31/52/16
f 31/52/16 32/51/26 34/53/27 33/54/1
f 62/55/28 72/56/29 828/57/30 823/58/31
f 33/54/1 34/53/27 36/59/32 35/60/4
f 35/60/4 36/59/32 26/61/25 25/62/6
f 25/63/6 27/64/8 29/65/10 31/66/16 33/67/1 35/68/4
f 37/69/8 38/70/33 40/71/34 39/72/10
f 39/72/10 40/71/34 42/73/35 41/74/16
f 41/74/16 42/73/35 44/75/36 43/76/1
f 43/76/1 44/75/36 46/77/37 45/78/4
f 56/79/38 54/80/39 819/81/40 820/82/41
f 45/78/4 46/77/37 48/83/42 47/84/6
f 47/84/6 48/83/42 38/85/33 37/86/8
f 37/87/8 39/88/10 41/89/16 43/90/1 45/91/4 47/92/6
f 49/93/16 50/94/43 52/95/44 51/96/1
f 51/96/1 52/95/44 54/80/39 53/97/4
f 53/97/4 54/80/39 56/79/38 55/98/6
f 55/98/6 56/79/38 58/99/45 57/100/8
f 26/61/25 36/59/32 810/101/46 805/102/47
f 57/100/8 58/99/45 60/103/48 59/104/10
f 59/104/10 60/103/48 50/105/43 49/106/16
f 49/107/16 51/108/1 53/109/4 55/110/6 57/111/8 59/112/10
f 61/113/10 62/114/28 64/115/49 63/116/16
f 63/116/16 64/115/49 66/117/50 65/118/1
f 65/118/1 66/117/50 68/119/51 67/120/4
f 67/120/4 68/119/51 70/121/52 69/122/6
f 20/31/20 18/29/19 801/123/53 802/124/54
f 69/122/6 70/121/52 72/56/29 71/125/8
f 71/125/8 72/56/29 62/55/28 61/126/10
f 61/127/10 63/128/16 65/129/1 67/130/4 69/131/6 71/132/8
f 73/133/55 79/134/56 80/135/57 74/136/58
f 74/136/58 80/135/57 81/137/59 75/138/60
f 75/138/60 81/137/59 82/139/61 76/140/62
f 76/141/62 82/142/61 83/143/63 77/144/64
f 77/144/64 83/143/63 84/145/65 78/146/66
f 78/146/66 84/145/65 79/134/56 73/133/55
f 847/147/67 85/148/68 86/149/69 848/150/70
f 848/150/70 86/149/69 87/151/71 849/152/72
f 849/152/72 87/151/71 88/153/73 850/154/74
f 850/155/74 88/156/73 89/157/75 851/158/76
f 851/158/76 89/157/75 90/159/77 852/160/78
f 852/160/78 90/159/77 85/148/68 847/147/67
f 85/148/68 91/161/79 92/162/80 86/149/69
f 86/149/69 92/162/80 93/163/81 87/151/71
f 87/151/71 93/163/81 94/164/82 88/153/73
f 88/156/73 94/165/82 95/166/83 89/157/75
f 89/157/75 95/166/83 96/167/84 90/159/77
f 90/159/77 96/167/84 91/161/79 85/148/68
f 91/161/79 97/168/85 98/169/86 92/162/80
f 92/162/80 98/169/86 99/170/87 93/163/81
f 93/163/81 99/170/87 100/171/88 94/164/82
f 94/165/82 100/172/88 101/173/89 95/166/83
f 95/166/83 101/173/89 102/174/90 96/167/84
f 96/167/84 102/174/90 97/168/85 91/161/79
f 841/175/91 103/176/92 104/177/93 842/178/94
f 842/178/94 104/177/93 105/179/95 843/180/96
f 843/180/96 105/179/95 106/181/97 844/182/98
f 844/183/98 106/184/97 107/185/99 845/186/100
f 845/186/100 107/185/99 108/187/101 846/188/102
f 846/188/102 108/187/101 103/176/92 841/175/91
f 103/176/92 109/189/62 110/190/103 104/177/93
f 104/177/93 110/190/103 111/191/104 105/179/95
f 105/179/95 111/191/104 112/192/55 106/181/97
f 106/184/97 112/193/55 113/194/105 107/185/99
f 107/185/99 113/194/105 114/195/106 108/187/101
f 108/187/101 114/195/106 109/189/62 103/176/92
f 109/196/62 115/197/107 116/198/108 110/199/103
f 110/199/103 116/198/108 117/200/109 111/201/104
f 111/201/104 117/200/109 118/202/110 112/203/55
f 112/204/55 118/205/110 119/206/111 113/207/105
f 113/207/105 119/206/111 120/208/112 114/209/106
f 114/209/106 120/208/112 115/197/107 109/196/62
f 835/210/74 121/211/113 122/212/114 836/213/115
f 836/213/115 122/212/114 123/214/116 837/215/117
f 837/215/117 123/214/116 124/216/118 838/217/67
f 838/218/67 124/219/118 125/220/119 839/221/120
f 839/221/120 125/220/119 126/222/121 840/223/122
f 840/223/122 126/222/121 121/211/113 835/210/74
f 121/211/113 127/224/82 128/225/123 122/212/114
f 122/212/114 128/225/123 129/226/124 123/214/116
f 123/214/116 129/226/124 130/227/79 124/216/118
f 124/219/118 130/228/79 131/229/125 125/220/119
f 125/220/119 131/229/125 132/230/126 126/222/121
f 126/222/121 132/230/126 127/224/82 121/211/113
f 127/224/82 133/231/127 134/232/128 128/225/123
f 128/225/123 134/232/128 135/233/129 129/226/124
f 129/226/124 135/233/129 136/234/130 130/227/79
f 130/228/79 136/235/130 137/236/131 131/229/125
f 131/229/125 137/236/131 138/237/132 132/230/126
f 132/230/126 138/237/132 133/231/127 127/224/82
f 829/238/98 139/239/133 140/240/134 830/241/135
f 830/241/135 140/240/134 141/242/136 831/243/137
f 831/243/137 141/242/136 142/244/138 832/245/91
f 832/246/91 142/247/138 143/248/139 833/249/140
f 833/249/140 143/248/139 144/250/141 834/251/142
f 834/251/142 144/250/141 139/239/133 829/238/98
f 139/239/133 73/133/55 74/136/58 140/240/134
f 140/240/134 74/136/58 75/138/60 141/242/136
f 141/242/136 75/138/60 76/140/62 142/244/138
f 142/247/138 76/141/62 77/144/64 143/248/139
f 143/248/139 77/144/64 78/146/66 144/250/141
f 144/250/141 78/146/66 73/133/55 139/239/133
f 145/252/55 151/253/56 152/254/57 146/255/58
f 146/255/58 152/254/57 153/256/59 147/257/60
f 147/257/60 153/256/59 154/258/61 148/259/62
f 148/260/62 154/261/61 155/262/63 149/263/64
f 149/263/64 155/262/63 156/264/65 150/265/66
f 150/265/66 156/264/65 151/253/56 145/252/55
f 865/266/67 157/267/68 158/268/69 866/269/70
f 866/269/70 158/268/69 159/270/71 867/271/72
f 867/271/72 159/270/71 160/272/73 868/273/74
f 868/274/74 160/275/73 161/276/75 869/277/76
f 869/277/76 161/276/75 162/278/77 870/279/78
f 870/279/78 162/278/77 157/267/68 865/266/67
f 157/267/68 163/280/79 164/281/80 158/268/69
f 158/268/69 164/281/80 165/282/81 159/270/71
f 159/270/71 165/282/81 166/283/82 160/272/73
f 160/275/73 166/284/82 167/285/83 161/276/75
f 161/276/75 167/285/83 168/286/84 162/278/77
f 162/278/77 168/286/84 163/280/79 157/267/68
f 163/280/79 169/287/85 170/288/86 164/281/80
f 164/281/80 170/288/86 171/289/87 165/282/81
f 165/282/81 171/289/87 172/290/88 166/283/82
f 166/284/82 172/291/88 173/292/89 167/285/83
f 167/285/83 173/292/89 174/293/90 168/286/84
f 168/286/84 174/293/90 169/287/85 163/280/79
f 859/294/91 175/295/92 176/296/93 860/297/94
f 860/297/94 176/296/93 177/298/95 861/299/96
f 861/299/96 177/298/95 178/300/97 862/301/98
f 862/302/98 178/303/97 179/304/99 863/305/100
f 863/305/100 179/304/99 180/306/101 864/307/102
f 864/307/102 180/306/101 175/295/92 859/294/91
f 175/295/92 181/308/62 182/309/103 176/296/93
f 176/296/93 182/309/103 183/310/104 177/298/95
f 177/298/95 183/310/104 184/311/55 178/300/97
f 178/303/97 184/312/55 185/313/105 179/304/99
f 179/304/99 185/313/105 186/314/106 180/306/101
f 180/306/101 186/314/106 181/308/62 175/295/92
f 181/315/62 187/316/107 188/317/108 182/318/103
f 182/318/103 188/317/108 189/319/109 183/320/104
f 183/320/104 189/319/109 190/321/110 184/322/55
f 184/323/55 190/324/110 191/325/111 185/326/105
f 185/326/105 191/325/111 192/327/112 186/328/106
f 186/328/106 192/327/112 187/316/107 181/315/62
f 853/329/74 193/330/113 194/331/114 854/332/115
f 854/332/115 194/331/114 195/333/116 855/334/117
f 855/334/117 195/333/116 196/335/118 856/336/67
f 856/337/67 196/338/118 197/339/119 857/340/120
f 857/340/120 197/339/119 198/341/121 858/342/122
f 858/342/122 198/341/121 193/330/113 853/329/74
f 193/330/113 199/343/82 200/344/123 194/331/114
f 194/331/114 200/344/123 201/345/124 195/333/116
f 195/333/116 201/345/124 202/346/79 196/335/118
f 196/338/118 202/347/79 203/348/125 197/339/119
f 197/339/119 203/348/125 204/349/126 198/341/121
f 198/341/121 204/349/126 199/343/82 193/330/113
f 199/343/82 205/350/127 206/351/128 200/344/123
f 200/344/123 206/351/128 207/352/129 201/345/124
f 201/345/124 207/352/129 208/353/130 202/346/79
f 202/347/79 208/354/130 209/355/131 203/348/125
f 203/348/125 209/355/131 210/356/132 204/349/126
f 204/349/126 210/356/132 205/350/127 199/343/82
f 871/357/98 211/358/133 212/359/134 872/360/135
f 872/360/135 212/359/134 213/361/136 873/362/137
f 873/362/137 213/361/136 214/363/138 874/364/91
f 874/365/91 214/366/138 215/367/139 875/368/140
f 875/368/140 215/367/139 216/369/141 876/370/142
f 876/370/142 216/369/141 211/358/133 871/357/98
f 211/358/133 145/252/55 146/255/58 212/359/134
f 212/359/134 146/255/58 147/257/60 213/361/136
f 213/361/136 147/257/60 148/259/62 214/363/138
f 214/366/138 148/260/62 149/263/64 215/367/139
f 215/367/139 149/263/64 150/265/66 216/369/141
f 216/369/141 150/265/66 145/252/55 211/358/133
f 217/371/55 223/372/110 224/373/143 218/374/58
f 218/374/58 224/373/143 225/375/59 219/376/60
f 219/376/60 225/375/59 226/377/61 220/378/62
f 220/379/62 226/380/61 227/381/63 221/382/64
f 221/382/64 227/381/63 228/383/144 222/384/66
f 222/384/66 228/383/144 223/372/110 217/371/55
f 223/372/110 229/385/118 230/386/145 224/373/143
f 224/373/143 230/386/145 231/387/71 225/375/59
f 225/375/59 231/387/71 232/388/73 226/377/61
f 226/380/61 232/389/73 233/390/75 227/381/63
f 227/381/63 233/390/75 234/391/146 228/383/144
f 228/383/144 234/391/146 229/385/118 223/372/110
f 229/385/118 235/392/79 236/393/80 230/386/145
f 230/386/145 236/393/80 237/394/81 231/387/71
f 231/387/71 237/394/81 238/395/82 232/388/73
f 232/389/73 238/396/82 239/397/83 233/390/75
f 233/390/75 239/397/83 240/398/84 234/391/146
f 234/391/146 240/398/84 235/392/79 229/385/118
f 235/392/79 241/399/130 242/400/147 236/393/80
f 236/393/80 242/400/147 243/401/87 237/394/81
f 237/394/81 243/401/87 244/402/88 238/395/82
f 238/396/82 244/403/88 245/404/89 239/397/83
f 239/397/83 245/404/89 246/405/148 240/398/84
f 240/398/84 246/405/148 241/399/130 235/392/79
f 241/399/130 247/406/138 248/407/149 242/400/147
f 242/400/147 248/407/149 249/408/95 243/401/87
f 243/401/87 249/408/95 250/409/97 244/402/88
f 244/403/88 250/410/97 251/411/99 245/404/89
f 245/404/89 251/411/99 252/412/150 246/405/148
f 246/405/148 252/412/150 247/406/138 241/399/130
f 247/406/138 253/413/62 254/414/103 248/407/149
f 248/407/149 254/414/103 255/415/104 249/408/95
f 249/408/95 255/415/104 256/416/55 250/409/97
f 250/410/97 256/417/55 257/418/105 251/411/99
f 251/411/99 257/418/105 258/419/106 252/412/150
f 252/412/150 258/419/106 253/413/62 247/406/138
f 253/420/62 259/421/61 260/422/151 254/423/103
f 254/423/103 260/422/151 261/424/109 255/425/104
f 255/425/104 261/424/109 262/426/110 256/427/55
f 256/428/55 262/429/110 263/430/111 257/431/105
f 257/431/105 263/430/111 264/432/152 258/433/106
f 258/433/106 264/432/152 259/421/61 253/420/62
f 259/421/61 265/434/73 266/435/153 260/422/151
f 260/422/151 266/435/153 267/436/116 261/424/109
f 261/424/109 267/436/116 268/437/118 262/426/110
f 262/429/110 268/438/118 269/439/119 263/430/111
f 263/430/111 269/439/119 270/440/154 264/432/152
f 264/432/152 270/440/154 265/434/73 259/421/61
f 265/434/73 271/441/82 272/442/123 266/435/153
f 266/435/153 272/442/123 273/443/124 267/436/116
f 267/436/116 273/443/124 274/444/79 268/437/118
f 268/438/118 274/445/79 275/446/125 269/439/119
f 269/439/119 275/446/125 276/447/126 270/440/154
f 270/440/154 276/447/126 271/441/82 265/434/73
f 271/441/82 277/448/88 278/449/155 272/442/123
f 272/442/123 278/449/155 279/450/129 273/443/124
f 273/443/124 279/450/129 280/451/130 274/444/79
f 274/445/79 280/452/130 281/453/131 275/446/125
f 275/446/125 281/453/131 282/454/156 276/447/126
f 276/447/126 282/454/156 277/448/88 271/441/82
f 277/448/88 283/455/97 284/456/157 278/449/155
f 278/449/155 284/456/157 285/457/136 279/450/129
f 279/450/129 285/457/136 286/458/138 280/451/130
f 280/452/130 286/459/138 287/460/139 281/453/131
f 281/453/131 287/460/139 288/461/158 282/454/156
f 282/454/156 288/461/158 283/455/97 277/448/88
f 283/455/97 217/371/55 218/374/58 284/456/157
f 284/456/157 218/374/58 219/376/60 285/457/136
f 285/457/136 219/376/60 220/378/62 286/458/138
f 286/459/138 220/379/62 221/382/64 287/460/139
f 287/460/139 221/382/64 222/384/66 288/461/158
f 288/461/158 222/384/66 217/371/55 283/455/97
f 289/462/55 295/463/110 296/464/143 290/465/58
f 290/465/58 296/464/143 297/466/59 291/467/60
f 291/467/60 297/466/59 298/468/61 292/469/62
f 292/470/62 298/471/61 299/472/63 293/473/64
f 293/473/64 299/472/63 300/474/144 294/475/66
f 294/475/66 300/474/144 295/463/110 289/462/55
f 295/463/110 301/476/118 302/477/145 296/464/143
f 296/464/143 302/477/145 303/478/71 297/466/59
f 297/466/59 303/478/71 304/479/73 298/468/61
f 298/471/61 304/480/73 305/481/75 299/472/63
f 299/472/63 305/481/75 306/482/146 300/474/144
f 300/474/144 306/482/146 301/476/118 295/463/110
f 301/476/118 307/483/79 308/484/80 302/477/145
f 302/477/145 308/484/80 309/485/81 303/478/71
f 303/478/71 309/485/81 310/486/82 304/479/73
f 304/480/73 310/487/82 311/488/83 305/481/75
f 305/481/75 311/488/83 312/489/84 306/482/146
f 306/482/146 312/489/84 307/483/79 301/476/118
f 307/483/79 313/490/130 314/491/147 308/484/80
f 308/484/80 314/491/147 315/492/87 309/485/81
f 309/485/81 315/492/87 316/493/88 310/486/82
f 310/487/82 316/494/88 317/495/89 311/488/83
f 311/488/83 317/495/89 318/496/148 312/489/84
f 312/489/84 318/496/148 313/490/130 307/483/79
f 313/490/130 319/497/138 320/498/149 314/491/147
f 314/491/147 320/498/149 321/499/95 315/492/87
f 315/492/87 321/499/95 322/500/97 316/493/88
f 316/494/88 322/501/97 323/502/99 317/495/89
f 317/495/89 323/502/99 324/503/150 318/496/148
f 318/496/148 324/503/150 319/497/138 313/490/130
f 319/497/138 325/504/62 326/505/103 320/498/149
f 320/498/149 326/505/103 327/506/104 321/499/95
f 321/499/95 327/506/104 328/507/55 322/500/97
f 322/501/97 328/508/55 329/509/105 323/502/99
f 323/502/99 329/509/105 330/510/106 324/503/150
f 324/503/150 330/510/106 325/504/62 319/497/138
f 325/511/62 331/512/61 332/513/151 326/514/103
f 326/514/103 332/513/151 333/515/109 327/516/104
f 327/516/104 333/515/109 334/517/110 328/518/55
f 328/519/55 334/520/110 335/521/111 329/522/105
f 329/522/105 335/521/111 336/523/152 330/524/106
f 330/524/106 336/523/152 331/512/61 325/511/62
f 331/512/61 337/525/73 338/526/153 332/513/151
f 332/513/151 338/526/153 339/527/116 333/515/109
f 333/515/109 339/527/116 340/528/118 334/517/110
f 334/520/110 340/529/118 341/530/119 335/521/111
f 335/521/111 341/530/119 342/531/154 336/523/152
f 336/523/152 342/531/154 337/525/73 331/512/61
f 337/525/73 343/532/82 344/533/123 338/526/153
f 338/526/153 344/533/123 345/534/124 339/527/116
f 339/527/116 345/534/124 346/535/79 340/528/118
f 340/529/118 346/536/79 347/537/125 341/530/119
f 341/530/119 347/537/125 348/538/126 342/531/154
f 342/531/154 348/538/126 343/532/82 337/525/73
f 343/532/82 349/539/88 350/540/155 344/533/123
f 344/533/123 350/540/155 351/541/129 345/534/124
f 345/534/124 351/541/129 352/542/130 346/535/79
f 346/536/79 352/543/130 353/544/131 347/537/125
f 347/537/125 353/544/131 354/545/156 348/538/126
f 348/538/126 354/545/156 349/539/88 343/532/82
f 349/539/88 355/546/97 356/547/157 350/540/155
f 350/540/155 356/547/157 357/548/136 351/541/129
f 351/541/129 357/548/136 358/549/138 352/542/130
f 352/543/130 358/550/138 359/551/139 353/544/131
f 353/544/131 359/551/139 360/552/158 354/545/156
f 354/545/156 360/552/158 355/546/97 349/539/88
f 355/546/97 289/462/55 290/465/58 356/547/157
f 356/547/157 290/465/58 291/467/60 357/548/136
f 357/548/136 291/467/60 292/469/62 358/549/138
f 358/550/138 292/470/62 293/473/64 359/551/139
f 359/551/139 293/473/64 294/475/66 360/552/158
f 360/552/158 294/475/66 289/462/55 355/546/97
f 361/553/55 367/554/110 368/555/143 362/556/58
f 362/556/58 368/555/143 369/557/59 363/558/60
f 363/558/60 369/557/59 370/559/61 364/560/62
f 364/561/62 370/562/61 371/563/63 365/564/64
f 365/564/64 371/563/63 372/565/144 366/566/66
f 366/566/66 372/565/144 367/554/110 361/553/55
f 367/554/110 373/567/118 374/568/145 368/555/143
f 368/555/143 374/568/145 375/569/71 369/557/59
f 369/557/59 375/569/71 376/570/73 370/559/61
f 370/562/61 376/571/73 377/572/75 371/563/63
f 371/563/63 377/572/75 378/573/146 372/565/144
f 372/565/144 378/573/146 373/567/118 367/554/110
f 373/567/118 379/574/79 380/575/80 374/568/145
f 374/568/145 380/575/80 381/576/81 375/569/71
f 375/569/71 381/576/81 382/577/82 376/570/73
f 376/571/73 382/578/82 383/579/83 377/572/75
f 377/572/75 383/579/83 384/580/84 378/573/146
f 378/573/146 384/580/84 379/574/79 373/567/118
f 379/574/79 385/581/130 386/582/147 380/575/80
f 380/575/80 386/582/147 387/583/87 381/576/81
f 381/576/81 387/583/87 388/584/88 382/577/82
f 382/578/82 388/585/88 389/586/89 383/579/83
f 383/579/83 389/586/89 390/587/148 384/580/84
f 384/580/84 390/587/148 385/581/130 379/574/79
f 385/581/130 391/588/138 392/589/149 386/582/147
f 386/582/147 392/589/149 393/590/95 387/583/87
f 387/583/87 393/590/95 394/591/97 388/584/88
f 388/585/88 394/592/97 395/593/99 389/586/89
f 389/586/89 395/593/99 396/594/150 390/587/148
f 390/587/148 396/594/150 391/588/138 385/581/130
f 391/588/138 397/595/62 398/596/103 392/589/149
f 392/589/149 398/596/103 399/597/104 393/590/95
f 393/590/95 399/597/104 400/598/55 394/591/97
f 394/592/97 400/599/55 401/600/105 395/593/99
f 395/593/99 401/600/105 402/601/106 396/594/150
f 396/594/150 402/601/106 397/595/62 391/588/138
f 397/602/62 403/603/61 404/604/151 398/605/103
f 398/605/103 404/604/151 405/606/109 399/607/104
f 399/607/104 405/606/109 406/608/110 400/609/55
f 400/610/55 406/611/110 407/612/111 401/613/105
f 401/613/105 407/612/111 408/614/152 402/615/106
f 402/615/106 408/614/152 403/603/61 397/602/62
f 403/603/61 409/616/73 410/617/153 404/604/151
f 404/604/151 410/617/153 411/618/116 405/606/109
f 405/606/109 411/618/116 412/619/118 406/608/110
f 406/611/110 412/620/118 413/621/119 407/612/111
f 407/612/111 413/621/119 414/622/154 408/614/152
f 408/614/152 414/622/154 409/616/73 403/603/61
f 409/616/73 415/623/82 416/624/123 410/617/153
f 410/617/153 416/624/123 417/625/124 411/618/116
f 411/618/116 417/625/124 418/626/79 412/619/118
f 412/620/118 418/627/79 419/628/125 413/621/119
f 413/621/119 419/628/125 420/629/126 414/622/154
f 414/622/154 420/629/126 415/623/82 409/616/73
f 415/623/82 421/630/88 422/631/155 416/624/123
f 416/624/123 422/631/155 423/632/129 417/625/124
f 417/625/124 423/632/129 424/633/130 418/626/79
f 418/627/79 424/634/130 425/635/131 419/628/125
f 419/628/125 425/635/131 426/636/156 420/629/126
f 420/629/126 426/636/156 421/630/88 415/623/82
f 421/630/88 427/637/97 428/638/157 422/631/155
f 422/631/155 428/638/157 429/639/136 423/632/129
f 423/632/129 429/639/136 430/640/138 424/633/130
f 424/634/130 430/641/138 431/642/139 425/635/131
f 425/635/131 431/642/139 432/643/158 426/636/156
f 426/636/156 432/643/158 427/637/97 421/630/88
f 427/637/97 361/553/55 362/556/58 428/638/157
f 428/638/157 362/556/58 363/558/60 429/639/136
f 429/639/136 363/558/60 364/560/62 430/640/138
f 430/641/138 364/561/62 365/564/64 431/642/139
f 431/642/139 365/564/64 366/566/66 432/643/158
f 432/643/158 366/566/66 361/553/55 427/637/97
f 433/644/55 439/645/110 440/646/143 434/647/58
f 434/647/58 440/646/143 441/648/59 435/649/60
f 435/649/60 441/648/59 442/650/61 436/651/62
f 436/652/62 442/653/61 443/654/63 437/655/64
f 437/655/64 443/654/63 444/656/144 438/657/66
f 438/657/66 444/656/144 439/645/110 433/644/55
f 439/645/110 445/658/118 446/659/145 440/646/143
f 440/646/143 446/659/145 447/660/71 441/648/59
f 441/648/59 447/660/71 448/661/73 442/650/61
f 442/653/61 448/662/73 449/663/75 443/654/63
f 443/654/63 449/663/75 450/664/146 444/656/144
f 444/656/144 450/664/146 445/658/118 439/645/110
f 445/658/118 451/665/79 452/666/80 446/659/145
f 446/659/145 452/666/80 453/667/81 447/660/71
f 447/660/71 453/667/81 454/668/82 448/661/73
f 448/662/73 454/669/82 455/670/83 449/663/75
f 449/663/75 455/670/83 456/671/84 450/664/146
f 450/664/146 456/671/84 451/665/79 445/658/118
f 451/665/79 457/672/130 458/673/147 452/666/80
f 452/666/80 458/673/147 459/674/87 453/667/81
f 453/667/81 459/674/87 460/675/88 454/668/82
f 454/669/82 460/676/88 461/677/89 455/670/83
f 455/670/83 461/677/89 462/678/148 456/671/84
f 456/671/84 462/678/148 457/672/130 451/665/79
f 457/672/130 463/679/138 464/680/149 458/673/147
f 458/673/147 464/680/149 465/681/95 459/674/87
f 459/674/87 465/681/95 466/682/97 460/675/88
f 460/676/88 466/683/97 467/684/99 461/677/89
f 461/677/89 467/684/99 468/685/150 462/678/148
f 462/678/148 468/685/150 463/679/138 457/672/130
f 463/679/138 469/686/62 470/687/103 464/680/149
f 464/680/149 470/687/103 471/688/104 465/681/95
f 465/681/95 471/688/104 472/689/55 466/682/97
f 466/683/97 472/690/55 473/691/105 467/684/99
f 467/684/99 473/691/105 474/692/106 468/685/150
f 468/685/150 474/692/106 469/686/62 463/679/138
f 469/693/62 475/694/61 476/695/151 470/696/103
f 470/696/103 476/695/151 477/697/109 471/698/104
f 471/698/104 477/697/109 478/699/110 472/700/55
f 472/701/55 478/702/110 479/703/111 473/704/105
f 473/704/105 479/703/111 480/705/152 474/706/106
f 474/706/106 480/705/152 475/694/61 469/693/62
f 475/694/61 481/707/73 482/708/153 476/695/151
f 476/695/151 482/708/153 483/709/116 477/697/109
f 477/697/109 483/709/116 484/710/118 478/699/110
f 478/702/110 484/711/118 485/712/119 479/703/111
f 479/703/111 485/712/119 486/713/154 480/705/152
f 480/705/152 486/713/154 481/707/73 475/694/61
f 481/707/73 487/714/82 488/715/123 482/708/153
f 482/708/153 488/715/123 489/716/124 483/709/116
f 483/709/116 489/716/124 490/717/79 484/710/118
f 484/711/118 490/718/79 491/719/125 485/712/119
f 485/712/119 491/719/125 492/720/126 486/713/154
f 486/713/154 492/720/126 487/714/82 481/707/73
f 487/714/82 493/721/88 494/722/155 488/715/123
f 488/715/123 494/722/155 495/723/129 489/716/124
f 489/716/124 495/723/129 496/724/130 490/717/79
f 490/718/79 496/725/130 497/726/131 491/719/125
f 491/719/125 497/726/131 498/727/156 492/720/126
f 492/720/126 498/727/156 493/721/88 487/714/82
f 493/721/88 499/728/97 500/729/157 494/722/155
f 494/722/155 500/729/157 501/730/136 495/723/129
f 495/723/129 501/730/136 502/731/138 496/724/130
f 496/725/130 502/732/138 503/733/139 497/726/131
f 497/726/131 503/733/139 504/734/158 498/727/156
f 498/727/156 504/734/158 499/728/97 493/721/88
f 499/728/97 433/644/55 434/647/58 500/729/157
f 500/729/157 434/647/58 435/649/60 501/730/136
f 501/730/136 435/649/60 436/651/62 502/731/138
f 502/732/138 436/652/62 437/655/64 503/733/139
f 503/733/139 437/655/64 438/657/66 504/734/158
f 504/734/158 438/657/66 433/644/55 499/728/97
f 505/735/55 511/736/110 512/737/143 506/738/58
f 506/738/58 512/737/143 513/739/59 507/740/60
f 507/740/60 513/739/59 514/741/61 508/742/62
f 508/743/62 514/744/61 515/745/63 509/746/64
f 509/746/64 515/745/63 516/747/144 510/748/66
f 510/748/66 516/747/144 511/736/110 505/735/55
f 511/736/110 517/749/118 518/750/145 512/737/143
f 512/737/143 518/750/145 519/751/71 513/739/59
f 513/739/59 519/751/71 520/752/73 514/741/61
f 514/744/61 520/753/73 521/754/75 515/745/63
f 515/745/63 521/754/75 522/755/146 516/747/144
f 516/747/144 522/755/146 517/749/118 511/736/110
f 517/749/118 523/756/79 524/757/80 518/750/145
f 518/750/145 524/757/80 525/758/81 519/751/71
f 519/751/71 525/758/81 526/759/82 520/752/73
f 520/753/73 526/760/82 527/761/83 521/754/75
f 521/754/75 527/761/83 528/762/84 522/755/146
f 522/755/146 528/762/84 523/756/79 517/749/118
f 523/756/79 529/763/130 530/764/147 524/757/80
f 524/757/80 530/764/147 531/765/87 525/758/81
f 525/758/81 531/765/87 532/766/88 526/759/82
f 526/760/82 532/767/88 533/768/89 527/761/83
f 527/761/83 533/768/89 534/769/148 528/762/84
f 528/762/84 534/769/148 529/763/130 523/756/79
f 529/763/130 535/770/138 536/771/149 530/764/147
f 530/764/147 536/771/149 537/772/95 531/765/87
f 531/765/87 537/772/95 538/773/97 532/766/88
f 532/767/88 538/774/97 539/775/99 533/768/89
f 533/768/89 539/775/99 540/776/150 534/769/148
f 534/769/148 540/776/150 535/770/138 529/763/130
f 535/770/138 541/777/62 542/778/103 536/771/149
f 536/771/149 542/778/103 543/779/104 537/772/95
f 537/772/95 543/779/104 544/780/55 538/773/97
f 538/774/97 544/781/55 545/782/105 539/775/99
f 539/775/99 545/782/105 546/783/106 540/776/150
f 540/776/150 546/783/106 541/777/62 535/770/138
f 541/784/62 547/785/61 548/786/151 542/787/103
f 542/787/103 548/786/151 549/788/109 543/789/104
f 543/789/104 549/788/109 550/790/110 544/791/55
f 544/792/55 550/793/110 551/794/111 545/795/105
f 545/795/105 551/794/111 552/796/152 546/797/106
f 546/797/106 552/796/152 547/785/61 541/784/62
f 547/785/61 553/798/73 554/799/153 548/786/151
f 548/786/151 554/799/153 555/800/116 549/788/109
f 549/788/109 555/800/116 556/801/118 550/790/110
f 550/793/110 556/802/118 557/803/119 551/794/111
f 551/794/111 557/803/119 558/804/154 552/796/152
f 552/796/152 558/804/154 553/798/73 547/785/61
f 553/798/73 559/805/82 560/806/123 554/799/153
f 554/799/153 560/806/123 561/807/124 555/800/116
f 555/800/116 561/807/124 562/808/79 556/801/118
f 556/802/118 562/809/79 563/810/125 557/803/119
f 557/803/119 563/810/125 564/811/126 558/804/154
f 558/804/154 564/811/126 559/805/82 553/798/73
f 559/805/82 565/812/88 566/813/155 560/806/123
f 560/806/123 566/813/155 567/814/129 561/807/124
f 561/807/124 567/814/129 568/815/130 562/808/79
f 562/809/79 568/816/130 569/817/131 563/810/125
f 563/810/125 569/817/131 570/818/156 564/811/126
f 564/811/126 570/818/156 565/812/88 559/805/82
f 565/812/88 571/819/97 572/820/157 566/813/155
f 566/813/155 572/820/157 573/821/136 567/814/129
f 567/814/129 573/821/136 574/822/138 568/815/130
f 568/816/130 574/823/138 575/824/139 569/817/131
f 569/817/131 575/824/139 576/825/158 570/818/156
f 570/818/156 576/825/158 571/819/97 565/812/88
f 571/819/97 505/735/55 506/738/58 572/820/157
f 572/820/157 506/738/58 507/740/60 573/821/136
f 573/821/136 507/740/60 508/742/62 574/822/138
f 574/823/138 508/743/62 509/746/64 575/824/139
f 575/824/139 509/746/64 510/748/66 576/825/158
f 576/825/158 510/748/66 505/735/55 571/819/97
f 577/826/55 583/827/110 584/828/143 578/829/58
f 578/829/58 584/828/143 585/830/59 579/831/60
f 579/831/60 585/830/59 586/832/61 580/833/62
f 580/834/62 586/835/61 587/836/63 581/837/64
f 581/837/64 587/836/63 588/838/144 582/839/66
f 582/839/66 588/838/144 583/827/110 577/826/55
f 583/827/110 589/840/118 590/841/145 584/828/143
f 584/828/143 590/841/145 591/842/71 585/830/59
f 585/830/59 591/842/71 592/843/73 586/832/61
f 586/835/61 592/844/73 593/845/75 587/836/63
f 587/836/63 593/845/75 594/846/146 588/838/144
f 588/838/144 594/846/146 589/840/118 583/827/110
f 589/840/118 595/847/79 596/848/80 590/841/145
f 590/841/145 596/848/80 597/849/81 591/842/71
f 591/842/71 597/849/81 598/850/82 592/843/73
f 592/844/73 598/851/82 599/852/83 593/845/75
f 593/845/75 599/852/83 600/853/84 594/846/146
f 594/846/146 600/853/84 595/847/79 589/840/118
f 595/847/79 601/854/130 602/855/147 596/848/80
f 596/848/80 602/855/147 603/856/87 597/849/81
f 597/849/81 603/856/87 604/857/88 598/850/82
f 598/851/82 604/858/88 605/859/89 599/852/83
f 599/852/83 605/859/89 606/860/148 600/853/84
f 600/853/84 606/860/148 601/854/130 595/847/79
f 601/854/130 607/861/138 608/862/149 602/855/147
f 602/855/147 608/862/149 609/863/95 603/856/87
f 603/856/87 609/863/95 610/864/97 604/857/88
f 604/858/88 610/865/97 611/866/99 605/859/89
f 605/859/89 611/866/99 612/867/150 606/860/148
f 606/860/148 612/867/150 607/861/138 601/854/130
f 607/861/138 613/868/62 614/869/103 608/862/149
f 608/862/149 614/869/103 615/870/104 609/863/95
f 609/863/95 615/870/104 616/871/55 610/864/97
f 610/865/97 616/872/55 617/873/105 611/866/99
f 611/866/99 617/873/105 618/874/106 612/867/150
f 612/867/150 618/874/106 613/868/62 607/861/138
f 613/875/62 619/876/61 620/877/151 614/878/103
f 614/878/103 620/877/151 621/879/109 615/880/104
f 615/880/104 621/879/109 622/881/110 616/882/55
f 616/883/55 622/884/110 623/885/111 617/886/105
f 617/886/105 623/885/111 624/887/152 618/888/106
f 618/888/106 624/887/152 619/876/61 613/875/62
f 619/876/61 625/889/73 626/890/153 620/877/151
f 620/877/151 626/890/153 627/891/116 621/879/109
f 621/879/109 627/891/116 628/892/118 622/881/110
f 622/884/110 628/893/118 629/894/119 623/885/111
f 623/885/111 629/894/119 630/895/154 624/887/152
f 624/887/152 630/895/154 625/889/73 619/876/61
f 625/889/73 631/896/82 632/897/123 626/890/153
f 626/890/153 632/897/123 633/898/124 627/891/116
f 627/891/116 633/898/124 634/899/79 628/892/118
f 628/893/118 634/900/79 635/901/125 629/894/119
f 629/894/119 635/901/125 636/902/126 630/895/154
f 630/895/154 636/902/126 631/896/82 625/889/73
f 631/896/82 637/903/88 638/904/155 632/897/123
f 632/897/123 638/904/155 639/905/129 633/898/124
f 633/898/124 639/905/129 640/906/130 634/899/79
f 634/900/79 640/907/130 641/908/131 635/901/125
f 635/901/125 641/908/131 642/909/156 636/902/126
f 636/902/126 642/909/156 637/903/88 631/896/82
f 637/903/88 643/910/97 644/911/157 638/904/155
f 638/904/155 644/911/157 645/912/136 639/905/129
f 639/905/129 645/912/136 646/913/138 640/906/130
f 640/907/130 646/914/138 647/915/139 641/908/131
f 641/908/131 647/915/139 648/916/158 642/909/156
f 642/909/156 648/916/158 643/910/97 637/903/88
f 643/910/97 577/826/55 578/829/58 644/911/157
f 644/911/157 578/829/58 579/831/60 645/912/136
f 645/912/136 579/831/60 580/833/62 646/913/138
f 646/914/138 580/834/62 581/837/64 647/915/139
f 647/915/139 581/837/64 582/839/66 648/916/158
f 648/916/158 582/839/66 577/826/55 643/910/97
f 649/917/55 655/918/110 656/919/143 650/920/58
f 650/920/58 656/919/143 657/921/59 651/922/60
f 651/922/60 657/921/59 658/923/61 652/924/62
f 652/925/62 658/926/61 659/927/63 653/928/64
f 653/928/64 659/927/63 660/929/144 654/930/66
f 654/930/66 660/929/144 655/918/110 649/917/55
f 655/918/110 661/931/118 662/932/145 656/919/143
f 656/919/143 662/932/145 663/933/71 657/921/59
f 657/921/59 663/933/71 664/934/73 658/923/61
f 658/926/61 664/935/73 665/936/75 659/927/63
f 659/927/63 665/936/75 666/937/146 660/929/144
f 660/929/144 666/937/146 661/931/118 655/918/110
f 661/931/118 667/938/79 668/939/80 662/932/145
f 662/932/145 668/939/80 669/940/81 663/933/71
f 663/933/71 669/940/81 670/941/82 664/934/73
f 664/935/73 670/942/82 671/943/83 665/936/75
f 665/936/75 671/943/83 672/944/84 666/937/146
f 666/937/146 672/944/84 667/938/79 661/931/118
f 667/938/79 673/945/130 674/946/147 668/939/80
f 668/939/80 674/946/147 675/947/87 669/940/81
f 669/940/81 675/947/87 676/948/88 670/941/82
f 670/942/82 676/949/88 677/950/89 671/943/83
f 671/943/83 677/950/89 678/951/148 672/944/84
f 672/944/84 678/951/148 673/945/130 667/938/79
f 673/945/130 679/952/138 680/953/149 674/946/147
f 674/946/147 680/953/149 681/954/95 675/947/87
f 675/947/87 681/954/95 682/955/97 676/948/88
f 676/949/88 682/956/97 683/957/99 677/950/89
f 677/950/89 683/957/99 684/958/150 678/951/148
f 678/951/148 684/958/150 679/952/138 673/945/130
f 679/952/138 685/959/62 686/960/103 680/953/149
f 680/953/149 686/960/103 687/961/104 681/954/95
f 681/954/95 687/961/104 688/962/55 682/955/97
f 682/956/97 688/963/55 689/964/105 683/957/99
f 683/957/99 689/964/105 690/965/106 684/958/150
f 684/958/150 690/965/106 685/959/62 679/952/138
f 685/966/62 691/967/61 692/968/151 686/969/103
f 686/969/103 692/968/151 693/970/109 687/971/104
f 687/971/104 693/970/109 694/972/110 688/973/55
f 688/974/55 694/975/110 695/976/111 689/977/105
f 689/977/105 695/976/111 696/978/152 690/979/106
f 690/979/106 696/978/152 691/967/61 685/966/62
f 691/967/61 697/980/73 698/981/153 692/968/151
f 692/968/151 698/981/153 699/982/116 693/970/109
f 693/970/109 699/982/116 700/983/118 694/972/110
f 694/975/110 700/984/118 701/985/119 695/976/111
f 695/976/111 701/985/119 702/986/154 696/978/152
f 696/978/152 702/986/154 697/980/73 691/967/61
f 697/980/73 703/987/82 704/988/123 698/981/153
f 698/981/153 704/988/123 705/989/124 699/982/116
f 699/982/116 705/989/124 706/990/79 700/983/118
f 700/984/118 706/991/79 707/992/125 701/985/119
f 701/985/119 707/992/125 708/993/126 702/986/154
f 702/986/154 708/993/126 703/987/82 697/980/73
f 703/987/82 709/994/88 710/995/155 704/988/123
f 704/988/123 710/995/155 711/996/129 705/989/124
f 705/989/124 711/996/129 712/997/130 706/990/79
f 706/991/79 712/998/130 713/999/131 707/992/125
f 707/992/125 713/999/131 714/1000/156 708/993/126
f 708/993/126 714/1000/156 709/994/88 703/987/82
f 709/994/88 715/1001/97 716/1002/157 710/995/155
f 710/995/155 716/1002/157 717/1003/136 711/996/129
f 711/996/129 717/1003/136 718/1004/138 712/997/130
f 712/998/130 718/1005/138 719/1006/139 713/999/131
f 713/999/131 719/1006/139 720/1007/158 714/1000/156
f 714/1000/156 720/1007/158 715/1001/97 709/994/88
f 715/1001/97 649/917/55 650/920/58 716/1002/157
f 716/1002/157 650/920/58 651/922/60 717/1003/136
f 717/1003/136 651/922/60 652/924/62 718/1004/138
f 718/1005/138 652/925/62 653/928/64 719/1006/139
f 719/1006/139 653/928/64 654/930/66 720/1007/158
f 720/1007/158 654/930/66 649/917/55 715/1001/97
f 721/1008/55 727/1009/110 728/1010/143 722/1011/58
f 722/1011/58 728/1010/143 729/1012/59 723/1013/60
f 723/1013/60 729/1012/59 730/1014/61 724/1015/62
f 724/1016/62 730/1017/61 731/1018/63 725/1019/64
f 725/1019/64 731/1018/63 732/1020/144 726/1021/66
f 726/1021/66 732/1020/144 727/1009/110 721/1008/55
f 727/1009/110 733/1022/118 734/1023/145 728/1010/143
f 728/1010/143 734/1023/145 735/1024/71 729/1012/59
f 729/1012/59 735/1024/71 736/1025/73 730/1014/61
f 730/1017/61 736/1026/73 737/1027/75 731/1018/63
f 731/1018/63 737/1027/75 738/1028/146 732/1020/144
f 732/1020/144 738/1028/146 733/1022/118 727/1009/110
f 733/1022/118 739/1029/79 740/1030/80 734/1023/145
f 734/1023/145 740/1030/80 741/1031/81 735/1024/71
f 735/1024/71 741/1031/81 742/1032/82 736/1025/73
f 736/1026/73 742/1033/82 743/1034/83 737/1027/75
f 737/1027/75 743/1034/83 744/1035/84 738/1028/146
f 738/1028/146 744/1035/84 739/1029/79 733/1022/118
f 739/1029/79 745/1036/130 746/1037/147 740/1030/80
f 740/1030/80 746/1037/147 747/1038/87 741/1031/81
f 741/1031/81 747/1038/87 748/1039/88 742/1032/82
f 742/1033/82 748/1040/88 749/1041/89 743/1034/83
f 743/1034/83 749/1041/89 750/1042/148 744/1035/84
f 744/1035/84 750/1042/148 745/1036/130 739/1029/79
f 745/1036/130 751/1043/138 752/1044/149 746/1037/147
f 746/1037/147 752/1044/149 753/1045/95 747/1038/87
f 747/1038/87 753/1045/95 754/1046/97 748/1039/88
f 748/1040/88 754/1047/97 755/1048/99 749/1041/89
f 749/1041/89 755/1048/99 756/1049/150 750/1042/148
f 750/1042/148 756/1049/150 751/1043/138 745/1036/130
f 751/1043/138 757/1050/62 758/1051/103 752/1044/149
f 752/1044/149 758/1051/103 759/1052/104 753/1045/95
f 753/1045/95 759/1052/104 760/1053/55 754/1046/97
f 754/1047/97 760/1054/55 761/1055/105 755/1048/99
f 755/1048/99 761/1055/105 762/1056/106 756/1049/150
f 756/1049/150 762/1056/106 757/1050/62 751/1043/138
f 757/1057/62 763/1058/61 764/1059/151 758/1060/103
f 758/1060/103 764/1059/151 765/1061/109 759/1062/104
f 759/1062/104 765/1061/109 766/1063/110 760/1064/55
f 760/1065/55 766/1066/110 767/1067/111 761/1068/105
f 761/1068/105 767/1067/111 768/1069/152 762/1070/106
f 762/1070/106 768/1069/152 763/1058/61 757/1057/62
f 763/1058/61 769/1071/73 770/1072/153 764/1059/151
f 764/1059/151 770/1072/153 771/1073/116 765/1061/109
f 765/1061/109 771/1073/116 772/1074/118 766/1063/110
f 766/1066/110 772/1075/118 773/1076/119 767/1067/111
f 767/1067/111 773/1076/119 774/1077/154 768/1069/152
f 768/1069/152 774/1077/154 769/1071/73 763/1058/61
f 769/1071/73 775/1078/82 776/1079/123 770/1072/153
f 770/1072/153 776/1079/123 777/1080/124 771/1073/116
f 771/1073/116 777/1080/124 778/1081/79 772/1074/118
f 772/1075/118 778/1082/79 779/1083/125 773/1076/119
f 773/1076/119 779/1083/125 780/1084/126 774/1077/154
f 774/1077/154 780/1084/126 775/1078/82 769/1071/73
f 775/1078/82 781/1085/88 782/1086/155 776/1079/123
f 776/1079/123 782/1086/155 783/1087/129 777/1080/124
f 777/1080/124 783/1087/129 784/1088/130 778/1081/79
f 778/1082/79 784/1089/130 785/1090/131 779/1083/125
f 779/1083/125 785/1090/131 786/1091/156 780/1084/126
f 780/1084/126 786/1091/156 781/1085/88 775/1078/82
f 781/1085/88 787/1092/97 788/1093/157 782/1086/155
f 782/1086/155 788/1093/157 789/1094/136 783/1087/129
f 783/1087/129 789/1094/136 790/1095/138 784/1088/130
f 784/1089/130 790/1096/138 791/1097/139 785/1090/131
f 785/1090/131 791/1097/139 792/1098/158 786/1091/156
f 786/1091/156 792/1098/158 787/1092/97 781/1085/88
f 787/1092/97 721/1008/55 722/1011/58 788/1093/157
f 788/1093/157 722/1011/58 723/1013/60 789/1094/136
f 789/1094/136 723/1013/60 724/1015/62 790/1095/138
f 790/1096/138 724/1016/62 725/1019/64 791/1097/139
f 791/1097/139 725/1019/64 726/1021/66 792/1098/158
f 792/1098/158 726/1021/66 721/1008/55 787/1092/97
f 794/1099/159 793/1100/160 798/1101/23 797/1102/22 796/1103/161 795/1104/162
f 800/1105/163 799/1106/164 804/1107/165 803/1108/166 802/1109/54 801/1110/53
f 806/1111/13 805/1112/47 810/1113/46 809/1114/167 808/1115/168 807/1116/14
f 812/1117/169 811/1118/170 816/1119/171 815/1120/172 814/1121/173 813/1122/174
f 818/1123/175 817/1124/176 822/1125/177 821/1126/178 820/1127/41 819/1128/40
f 824/1129/179 823/1130/31 828/1131/30 827/1132/180 826/1133/181 825/1134/182
f 48/83/42 46/77/37 815/1135/172 816/1136/171
f 4/3/3 2/2/2 793/1137/160 794/1138/159
f 66/117/50 64/115/49 824/1139/179 825/1140/182
f 40/71/34 38/70/33 811/1141/170 812/1142/169
f 22/33/21 20/31/20 802/124/54 803/1143/166
f 58/99/45 56/79/38 820/82/41 821/1144/178
f 2/17/2 12/15/15 798/36/23 793/1145/160
f 32/51/26 30/11/11 807/14/14 808/1146/168
f 38/85/33 48/83/42 816/1136/171 811/1147/170
f 68/119/51 66/117/50 825/1140/182 826/1148/181
f 6/5/5 4/3/3 794/1138/159 795/1149/162
f 24/37/24 22/33/21 803/1143/166 804/1150/165
f 42/73/35 40/71/34 812/1142/169 813/1151/174
f 60/103/48 58/99/45 821/1144/178 822/1152/177
f 16/27/18 14/26/17 799/1153/164 800/1154/163
f 52/95/44 50/94/43 817/1155/176 818/1156/175
f 34/53/27 32/51/26 808/1146/168 809/1157/167
f 70/121/52 68/119/51 826/1148/181 827/1158/180
f 8/7/7 6/5/5 795/1149/162 796/1159/161
f 14/39/17 24/37/24 804/1150/165 799/1160/164
f 44/75/36 42/73/35 813/1151/174 814/1161/173
f 50/105/43 60/103/48 822/1152/177 817/1162/176
f 18/29/19 16/27/18 800/1154/163 801/123/53
f 36/59/32 34/53/27 809/1157/167 810/101/46
f 54/80/39 52/95/44 818/1156/175 819/81/40
f 72/56/29 70/121/52 827/1158/180 828/57/30
f 28/12/12 26/48/25 805/1163/47 806/13/13
f 64/115/49 62/114/28 823/1164/31 824/1139/179
f 10/9/9 8/7/7 796/1159/161 797/35/22
f 46/77/37 44/75/36 814/1161/173 815/1135/172
f 138/237/132 834/251/142 829/238/98 133/231/127
f 137/236/131 833/249/140 834/251/142 138/237/132
f 136/235/130 832/246/91 833/249/140 137/236/131
f 135/233/129 831/243/137 832/245/91 136/234/130
f 134/232/128 830/241/135 831/243/137 135/233/129
f 133/231/127 829/238/98 830/241/135 134/232/128
f 120/208/112 840/223/122 835/210/74 115/197/107
f 119/206/111 839/221/120 840/223/122 120/208/112
f 118/205/110 838/218/67 839/221/120 119/206/111
f 117/200/109 837/215/117 838/217/67 118/202/110
f 116/198/108 836/213/115 837/215/117 117/200/109
f 115/197/107 835/210/74 836/213/115 116/198/108
f 102/174/90 846/188/102 841/175/91 97/168/85
f 101/173/89 845/186/100 846/188/102 102/174/90
f 100/172/88 844/183/98 845/186/100 101/173/89
f 99/170/87 843/180/96 844/182/98 100/171/88
f 98/169/86 842/178/94 843/180/96 99/170/87
f 97/168/85 841/175/91 842/178/94 98/169/86
f 84/145/65 852/160/78 847/147/67 79/134/56
f 83/143/63 851/158/76 852/160/78 84/145/65
f 82/142/61 850/155/74 851/158/76 83/143/63
f 81/137/59 849/152/72 850/154/74 82/139/61
f 80/135/57 848/150/70 849/152/72 81/137/59
f 79/134/56 847/147/67 848/150/70 80/135/57
f 192/327/112 858/342/122 853/329/74 187/316/107
f 191/325/111 857/340/120 858/342/122 192/327/112
f 190/324/110 856/337/67 857/340/120 191/325/111
f 189/319/109 855/334/117 856/336/67 190/321/110
f 188/317/108 854/332/115 855/334/117 189/319/109
f 187/316/107 853/329/74 854/332/115 188/317/108
f 174/293/90 864/307/102 859/294/91 169/287/85
f 173/292/89 863/305/100 864/307/102 174/293/90
f 172/291/88 862/302/98 863/305/100 173/292/89
f 171/289/87 861/299/96 862/301/98 172/290/88
f 170/288/86 860/297/94 861/299/96 171/289/87
f 169/287/85 859/294/91 860/297/94 170/288/86
f 156/264/65 870/279/78 865/266/67 151/253/56
f 155/262/63 869/277/76 870/279/78 156/264/65
f 154/261/61 868/274/74 869/277/76 155/262/63
f 153/256/59 867/271/72 868/273/74 154/258/61
f 152/254/57 866/269/70 867/271/72 153/256/59
f 151/253/56 865/266/67 866/269/70 152/254/57
f 210/356/132 876/370/142 871/357/98 205/350/127
f 209/355/131 875/368/140 876/370/142 210/356/132
f 208/354/130 874/365/91 875/368/140 209/355/131
f 207/352/129 873/362/137 874/364/91 208/353/130
f 206/351/128 872/360/135 873/362/137 207/352/129
f 205/350/127 871/357/98 872/360/135 206/351/128
