# Blender v2.90.1 OBJ File: ''
# www.blender.org
mtllib PinballFlipper.mtl
o Cube
v 0.042780 0.000000 -0.190256
v -0.146626 0.000000 -0.107395
v 0.042780 0.000000 0.190256
v -0.178270 0.000000 -0.037712
v -0.178270 0.000000 0.037712
v -0.146626 0.000000 0.107395
v -0.093292 0.000000 0.160729
v -0.030099 0.000000 0.189592
v -0.030099 0.000000 -0.189592
v -0.093293 0.000000 -0.160728
v 0.848486 0.000000 0.031884
v 0.884011 0.000000 0.015955
v 0.893349 0.000000 0.000000
v 0.884011 0.000000 -0.015955
v 0.848486 0.000000 -0.031884
v 0.042780 0.300000 -0.190256
v -0.146626 0.300000 -0.107395
v 0.042780 0.300000 0.190256
v -0.178270 0.300000 -0.037712
v -0.178270 0.300000 0.037712
v -0.146626 0.300000 0.107395
v -0.093292 0.300000 0.160729
v -0.030099 0.300000 0.189592
v -0.030099 0.300000 -0.189592
v -0.093293 0.300000 -0.160728
v 0.848486 0.300000 0.031884
v 0.884011 0.300000 0.015955
v 0.893349 0.300000 0.000000
v 0.884011 0.300000 -0.015955
v 0.848486 0.300000 -0.031884
v 0.924847 0.030000 0.000000
v 0.924847 0.270000 0.000000
v 0.914470 0.270000 -0.016913
v 0.914470 0.030000 -0.016913
v -0.203076 0.030000 -0.041903
v -0.203076 0.270000 -0.041903
v -0.171005 0.270000 -0.119328
v -0.171005 0.030000 -0.119328
v 0.889420 0.270000 -0.035427
v 0.889420 0.030000 -0.035427
v -0.111746 0.030000 -0.178587
v -0.111746 0.270000 -0.178587
v -0.034320 0.030000 0.210658
v -0.034320 0.270000 0.210658
v -0.111746 0.270000 0.178587
v -0.111746 0.030000 0.178587
v -0.034320 0.270000 -0.210658
v -0.034320 0.030000 -0.210658
v 0.049747 0.270000 0.211395
v 0.049747 0.030000 0.211395
v 0.049747 0.270000 -0.211395
v 0.049747 0.030000 -0.211395
v 0.889420 0.030000 0.035427
v 0.889420 0.270000 0.035427
v -0.203076 0.030000 0.041902
v -0.203076 0.270000 0.041902
v 0.914471 0.270000 0.016913
v 0.914471 0.030000 0.016913
v -0.171005 0.270000 0.119328
v -0.171005 0.030000 0.119328
v 0.042780 0.300000 -0.000000
v 0.718065 0.300000 0.000000
v 0.042780 0.000000 -0.000000
v 0.718065 0.000000 0.000000
vt 0.735952 0.376894
vt 0.680829 0.366857
vt 0.691126 0.348526
vt 0.758257 0.348299
vt 0.166495 0.438225
vt 0.147297 0.381729
vt 0.174530 0.377664
vt 0.193423 0.426506
vt 0.699600 0.406238
vt 0.642587 0.385060
vt 0.227465 0.467359
vt 0.204923 0.485725
vt 0.202320 0.217322
vt 0.256254 0.179532
vt 0.268744 0.206940
vt 0.225605 0.235673
vt 0.258429 0.523515
vt 0.270608 0.495729
vt 0.329715 0.155481
vt 0.326687 0.192262
vt 0.332033 0.545338
vt 0.328434 0.509034
vt 0.698744 0.290753
vt 0.642125 0.312616
vt 0.147378 0.323140
vt 0.174606 0.326608
vt 0.735596 0.319632
vt 0.680579 0.330327
vt 0.165814 0.266774
vt 0.192722 0.277641
vt 0.766766 0.940366
vt 0.825230 0.943068
vt 0.825901 0.975625
vt 0.757902 0.969820
vt 0.015011 0.313886
vt 0.034975 0.220866
vt 0.940045 0.536489
vt 0.956024 0.505168
vt 0.967501 0.519205
vt 0.947937 0.547616
vt 0.758484 0.111804
vt 0.738874 0.099896
vt 0.880387 0.924837
vt 0.891938 0.954735
vt 0.081521 0.134946
vt 0.976646 0.546115
vt 0.947771 0.576259
vt 0.706713 0.080687
vt 0.688287 0.709726
vt 0.666492 0.689569
vt 0.910768 0.512506
vt 0.903314 0.553580
vt 0.253227 0.668937
vt 0.706606 0.617180
vt 0.715605 0.914009
vt 0.697030 0.939317
vt 0.021977 0.406355
vt 0.947560 0.841905
vt 0.976646 0.847709
vt 0.240581 0.017838
vt 0.664183 0.759619
vt 0.634814 0.751422
vt 0.171708 0.628274
vt 0.945203 0.909573
vt 0.921366 0.890655
vt 0.151518 0.063152
vt 0.660605 0.812960
vt 0.629516 0.821234
vt 0.100219 0.570411
vt 0.678445 0.868419
vt 0.651570 0.887285
vt 0.053495 0.491113
vt 0.937923 0.504115
vt 0.926404 0.536631
vt 0.738243 0.598761
vt 0.758484 0.586604
vt 0.498946 0.349739
vt 0.339919 0.350876
vt 0.878925 0.656309
vt 0.817599 0.776617
vn 0.7011 0.3265 -0.6338
vn 0.3228 0.8589 -0.3976
vn 0.4697 0.8828 0.0000
vn 0.9360 0.3520 0.0000
vn -0.7834 0.3375 -0.5218
vn -0.9240 0.3345 -0.1852
vn -0.4515 0.8872 -0.0945
vn -0.3704 0.8923 -0.2581
vn 0.4011 0.2713 -0.8749
vn 0.1412 0.8535 -0.5016
vn -0.2561 0.8833 -0.3927
vn -0.5325 0.3237 -0.7820
vn -0.5325 0.3237 0.7820
vn -0.1924 0.3021 0.9336
vn -0.1025 0.8685 0.4849
vn -0.2561 0.8833 0.3927
vn -0.1924 0.3021 -0.9336
vn -0.1025 0.8685 -0.4849
vn 0.0990 0.2710 0.9575
vn 0.0455 0.8638 0.5017
vn 0.0990 0.2710 -0.9575
vn 0.0455 0.8638 -0.5017
vn 0.4011 0.2713 0.8749
vn 0.1412 0.8535 0.5016
vn -0.9240 0.3345 0.1852
vn -0.4515 0.8872 0.0945
vn 0.7011 0.3265 0.6338
vn 0.3228 0.8589 0.3976
vn -0.7834 0.3375 0.5218
vn -0.3704 0.8923 0.2581
vn -0.4515 -0.8872 0.0945
vn -0.3704 -0.8923 0.2581
vn -0.7834 -0.3375 0.5218
vn -0.9240 -0.3345 0.1852
vn 0.4697 -0.8828 0.0000
vn 0.9360 -0.3520 0.0000
vn 0.7011 -0.3265 0.6338
vn 0.3228 -0.8589 0.3976
vn -0.2561 -0.8833 0.3927
vn -0.5325 -0.3237 0.7820
vn 0.4011 -0.2713 0.8749
vn 0.1412 -0.8535 0.5016
vn 0.0455 -0.8638 -0.5017
vn 0.0990 -0.2710 -0.9575
vn 0.4011 -0.2713 -0.8749
vn 0.1412 -0.8535 -0.5016
vn -0.4515 -0.8872 -0.0945
vn -0.9240 -0.3345 -0.1852
vn 0.0455 -0.8638 0.5017
vn 0.0990 -0.2710 0.9575
vn -0.1025 -0.8685 -0.4849
vn -0.1924 -0.3021 -0.9336
vn -0.1924 -0.3021 0.9336
vn -0.1025 -0.8685 0.4849
vn -0.2561 -0.8833 -0.3927
vn -0.5325 -0.3237 -0.7820
vn -0.3704 -0.8923 -0.2581
vn -0.7834 -0.3375 -0.5218
vn 0.7011 -0.3265 -0.6338
vn 0.3228 -0.8589 -0.3976
vn 0.0000 1.0000 0.0000
vn 0.0000 -1.0000 0.0000
usemtl Material
s 1
f 33/1/1 29/2/2 28/3/3 32/4/4
f 37/5/5 36/6/6 19/7/7 17/8/8
f 39/9/9 30/10/10 29/2/2 33/1/1
f 37/5/5 17/8/8 25/11/11 42/12/12
f 45/13/13 44/14/14 23/15/15 22/16/16
f 47/17/17 42/12/12 25/11/11 24/18/18
f 49/19/19 18/20/20 23/15/15 44/14/14
f 51/21/21 47/17/17 24/18/18 16/22/22
f 49/19/19 54/23/23 26/24/24 18/20/20
f 36/6/6 56/25/25 20/26/26 19/7/7
f 51/21/21 16/22/22 30/10/10 39/9/9
f 57/27/27 27/28/28 26/24/24 54/23/23
f 59/29/29 45/13/13 22/16/16 21/30/30
f 32/4/4 28/3/3 27/28/28 57/27/27
f 56/25/25 59/29/29 21/30/30 20/26/26
f 5/31/31 6/32/32 60/33/33 55/34/34
f 55/35/34 60/36/33 59/29/29 56/25/25
f 13/37/35 31/38/36 58/39/37 12/40/38
f 31/41/36 32/4/4 57/27/27 58/42/37
f 6/32/32 7/43/39 46/44/40 60/33/33
f 60/36/33 46/45/40 45/13/13 59/29/29
f 12/40/38 58/39/37 53/46/41 11/47/42
f 58/42/37 57/27/27 54/23/23 53/48/41
f 1/49/43 52/50/44 40/51/45 15/52/46
f 52/53/44 51/21/21 39/9/9 40/54/45
f 4/55/47 5/31/31 55/34/34 35/56/48
f 35/57/48 55/35/34 56/25/25 36/6/6
f 3/58/49 11/47/42 53/46/41 50/59/50
f 50/60/50 53/48/41 54/23/23 49/19/19
f 1/49/43 9/61/51 48/62/52 52/50/44
f 52/53/44 48/63/52 47/17/17 51/21/21
f 3/58/49 50/59/50 43/64/53 8/65/54
f 50/60/50 49/19/19 44/14/14 43/66/53
f 9/61/51 10/67/55 41/68/56 48/62/52
f 48/63/52 41/69/56 42/12/12 47/17/17
f 7/43/39 8/65/54 43/64/53 46/44/40
f 46/45/40 43/66/53 44/14/14 45/13/13
f 2/70/57 38/71/58 41/68/56 10/67/55
f 38/72/58 37/5/5 42/12/12 41/69/56
f 15/52/46 40/51/45 34/73/59 14/74/60
f 40/54/45 39/9/9 33/1/1 34/75/59
f 2/70/57 4/55/47 35/56/48 38/71/58
f 38/72/58 35/57/48 36/6/6 37/5/5
f 14/74/60 34/73/59 31/38/36 13/37/35
f 34/75/59 33/1/1 32/4/4 31/76/36
f 62/77/61 29/2/2 30/10/10
f 29/2/2 62/77/61 28/3/3
f 27/28/28 28/3/3 62/77/61
f 26/24/24 27/28/28 62/77/61
f 26/24/24 62/77/61 18/20/20
f 61/78/61 18/20/20 62/77/61
f 61/78/61 62/77/61 16/22/22
f 30/10/10 16/22/22 62/77/61
f 24/18/18 61/78/61 16/22/22
f 25/11/11 61/78/61 24/18/18
f 25/11/11 17/8/8 61/78/61
f 19/7/7 61/78/61 17/8/8
f 20/26/26 61/78/61 19/7/7
f 21/30/30 61/78/61 20/26/26
f 22/16/16 61/78/61 21/30/30
f 23/15/15 61/78/61 22/16/16
f 18/20/20 61/78/61 23/15/15
f 13/37/35 64/79/62 14/74/60
f 14/74/60 64/79/62 15/52/46
f 15/52/46 64/79/62 1/49/43
f 63/80/62 1/49/43 64/79/62
f 63/80/62 64/79/62 3/58/49
f 11/47/42 3/58/49 64/79/62
f 11/47/42 64/79/62 12/40/38
f 12/40/38 64/79/62 13/37/35
f 9/61/51 1/49/43 63/80/62
f 10/67/55 9/61/51 63/80/62
f 10/67/55 63/80/62 2/70/57
f 4/55/47 2/70/57 63/80/62
f 5/31/31 4/55/47 63/80/62
f 6/32/32 5/31/31 63/80/62
f 7/43/39 6/32/32 63/80/62
f 8/65/54 7/43/39 63/80/62
f 3/58/49 8/65/54 63/80/62
